<?xml version="1.0" encoding="UTF-8" standalone="no"?>
<graphml xmlns="http://graphml.graphdrawing.org/xmlns" xmlns:xsi="http://www.w3.org/2001/XMLSchema-instance" xmlns:y="http://www.yworks.com/xml/graphml" xmlns:yed="http://www.yworks.com/xml/yed/3" xsi:schemaLocation="http://graphml.graphdrawing.org/xmlns http://www.yworks.com/xml/schema/graphml/1.1/ygraphml.xsd">
  <!--Created by yFiles for Java 2.11-->
  <key for="graphml" id="d0" yfiles.type="resources"/>
  <key for="port" id="d1" yfiles.type="portgraphics"/>
  <key for="port" id="d2" yfiles.type="portgeometry"/>
  <key for="port" id="d3" yfiles.type="portuserdata"/>
  <key attr.name="url" attr.type="string" for="node" id="d4"/>
  <key attr.name="description" attr.type="string" for="node" id="d5"/>
  <key for="node" id="d6" yfiles.type="nodegraphics"/>
  <key attr.name="Description" attr.type="string" for="graph" id="d7"/>
  <key attr.name="url" attr.type="string" for="edge" id="d8"/>
  <key attr.name="description" attr.type="string" for="edge" id="d9"/>
  <key for="edge" id="d10" yfiles.type="edgegraphics"/>
  <graph edgedefault="directed" id="G">
    <data key="d7"/>
    <node id="n0">
      <data key="d5"/>
      <data key="d6">
        <y:ShapeNode>
          <y:Geometry height="679.0" width="758.0" x="629.0" y="295.0"/>
          <y:Fill color="#FFFF99" transparent="false"/>
          <y:BorderStyle color="#000000" type="line" width="1.0"/>
          <y:NodeLabel alignment="center" autoSizePolicy="content" fontFamily="Dialog" fontSize="12" fontStyle="plain" hasBackgroundColor="false" hasLineColor="false" height="17.96875" modelName="internal" modelPosition="bl" textColor="#000000" visible="true" width="153.21484375" x="4.0" y="657.03125">Market Place (Container)</y:NodeLabel>
          <y:Shape type="roundrectangle"/>
        </y:ShapeNode>
      </data>
    </node>
    <node id="n1">
      <data key="d5"/>
      <data key="d6">
        <y:ShapeNode>
          <y:Geometry height="158.0" width="758.0" x="629.0" y="295.0"/>
          <y:Fill color="#FFCC00" transparent="false"/>
          <y:BorderStyle color="#000000" type="dashed" width="1.0"/>
          <y:NodeLabel alignment="center" autoSizePolicy="content" fontFamily="Dialog" fontSize="12" fontStyle="plain" hasBackgroundColor="false" hasLineColor="false" hasText="false" height="4.0" modelName="custom" textColor="#000000" visible="true" width="4.0" x="377.0" y="77.0">
            <y:LabelModel>
              <y:SmartNodeLabelModel distance="4.0"/>
            </y:LabelModel>
            <y:ModelParameter>
              <y:SmartNodeLabelModelParameter labelRatioX="0.0" labelRatioY="0.0" nodeRatioX="0.0" nodeRatioY="0.0" offsetX="0.0" offsetY="0.0" upX="0.0" upY="-1.0"/>
            </y:ModelParameter>
          </y:NodeLabel>
          <y:Shape type="roundrectangle"/>
        </y:ShapeNode>
      </data>
    </node>
    <node id="n2">
      <data key="d5"/>
      <data key="d6">
        <y:GenericNode configuration="com.yworks.bpmn.Artifact.withShadow">
          <y:Geometry height="70.13700103759766" width="60.0" x="1268.0" y="338.9314994812012"/>
          <y:Fill color="#CCFFFF" transparent="false"/>
          <y:BorderStyle color="#000000" type="line" width="1.0"/>
          <y:NodeLabel alignment="center" autoSizePolicy="content" fontFamily="Dialog" fontSize="12" fontStyle="plain" hasBackgroundColor="false" hasLineColor="false" height="17.96875" modelName="sides" modelPosition="s" textColor="#000000" visible="true" width="46.69140625" x="6.654296875" y="74.13700103759766">History</y:NodeLabel>
          <y:StyleProperties>
            <y:Property class="com.yworks.yfiles.bpmn.view.BPMNTypeEnum" name="com.yworks.bpmn.type" value="ARTIFACT_TYPE_DATA_STORE"/>
            <y:Property class="java.awt.Color" name="com.yworks.bpmn.icon.line.color" value="#000000"/>
            <y:Property class="java.awt.Color" name="com.yworks.bpmn.icon.fill" value="#ffffff"/>
            <y:Property class="java.awt.Color" name="com.yworks.bpmn.icon.fill2" value="#d4d4d4"/>
          </y:StyleProperties>
        </y:GenericNode>
      </data>
    </node>
    <node id="n3">
      <data key="d5"/>
      <data key="d6">
        <y:GenericNode configuration="com.yworks.bpmn.Artifact.withShadow">
          <y:Geometry height="70.13700103759766" width="56.560157775878906" x="1160.5" y="338.9314994812012"/>
          <y:Fill color="#FFFFFFE6" transparent="false"/>
          <y:BorderStyle color="#000000" type="line" width="1.0"/>
          <y:NodeLabel alignment="center" autoSizePolicy="content" fontFamily="Dialog" fontSize="12" fontStyle="plain" hasBackgroundColor="false" hasLineColor="false" height="17.96875" modelName="sides" modelPosition="s" textColor="#000000" visible="true" width="53.6640625" x="1.4480476379394531" y="74.13700103759766">Registry</y:NodeLabel>
          <y:StyleProperties>
            <y:Property class="com.yworks.yfiles.bpmn.view.BPMNTypeEnum" name="com.yworks.bpmn.type" value="ARTIFACT_TYPE_DATA_OBJECT"/>
            <y:Property class="com.yworks.yfiles.bpmn.view.DataObjectTypeEnum" name="com.yworks.bpmn.dataObjectType" value="DATA_OBJECT_TYPE_PLAIN"/>
            <y:Property class="java.awt.Color" name="com.yworks.bpmn.icon.line.color" value="#000000"/>
            <y:Property class="java.awt.Color" name="com.yworks.bpmn.icon.fill" value="#ffffff"/>
            <y:Property class="java.awt.Color" name="com.yworks.bpmn.icon.fill2" value="#d4d4d4"/>
          </y:StyleProperties>
        </y:GenericNode>
      </data>
    </node>
    <node id="n4">
      <data key="d5"/>
      <data key="d6">
        <y:SVGNode>
          <y:Geometry height="78.60721024555446" width="70.55500030517578" x="1264.7220497131348" y="483.0"/>
          <y:Fill color="#CCCCFF" transparent="false"/>
          <y:BorderStyle color="#000000" type="line" width="1.0"/>
          <y:NodeLabel alignment="center" autoSizePolicy="content" fontFamily="Dialog" fontSize="12" fontStyle="plain" hasBackgroundColor="false" hasLineColor="false" height="17.96875" modelName="custom" textColor="#000000" visible="true" width="85.451171875" x="-7.448085784912109" y="82.60721024555443">MarketBroker<y:LabelModel>
              <y:SmartNodeLabelModel distance="4.0"/>
            </y:LabelModel>
            <y:ModelParameter>
              <y:SmartNodeLabelModelParameter labelRatioX="0.0" labelRatioY="-0.5" nodeRatioX="0.0" nodeRatioY="0.5" offsetX="0.0" offsetY="4.0" upX="0.0" upY="-1.0"/>
            </y:ModelParameter>
          </y:NodeLabel>
          <y:SVGNodeProperties usingVisualBounds="true"/>
          <y:SVGModel svgBoundsPolicy="0">
            <y:SVGContent refid="1"/>
          </y:SVGModel>
        </y:SVGNode>
      </data>
    </node>
    <node id="n5">
      <data key="d5"/>
      <data key="d6">
        <y:SVGNode>
          <y:Geometry height="69.94900512695312" width="56.554100036621094" x="977.7229499816895" y="607.4222106933594"/>
          <y:Fill color="#CCCCFF" transparent="false"/>
          <y:BorderStyle color="#000000" type="line" width="1.0"/>
          <y:NodeLabel alignment="center" autoSizePolicy="content" fontFamily="Dialog" fontSize="12" fontStyle="plain" hasBackgroundColor="false" hasLineColor="false" height="17.96875" modelName="custom" textColor="#000000" visible="true" width="52.890625" x="1.8317375183105469" y="73.94900512695312">Buyer_1<y:LabelModel>
              <y:SmartNodeLabelModel distance="4.0"/>
            </y:LabelModel>
            <y:ModelParameter>
              <y:SmartNodeLabelModelParameter labelRatioX="0.0" labelRatioY="-0.5" nodeRatioX="0.0" nodeRatioY="0.5" offsetX="0.0" offsetY="4.0" upX="0.0" upY="-1.0"/>
            </y:ModelParameter>
          </y:NodeLabel>
          <y:SVGNodeProperties usingVisualBounds="true"/>
          <y:SVGModel svgBoundsPolicy="0">
            <y:SVGContent refid="2"/>
          </y:SVGModel>
        </y:SVGNode>
      </data>
    </node>
    <node id="n6">
      <data key="d5"/>
      <data key="d6">
        <y:SVGNode>
          <y:Geometry height="64.53585815429688" width="56.560157775878906" x="977.7199211120605" y="870.6287841796875"/>
          <y:Fill color="#CCCCFF" transparent="false"/>
          <y:BorderStyle color="#000000" type="line" width="1.0"/>
          <y:NodeLabel alignment="center" autoSizePolicy="content" fontFamily="Dialog" fontSize="12" fontStyle="plain" hasBackgroundColor="false" hasLineColor="false" height="17.96875" modelName="custom" textColor="#000000" visible="true" width="52.890625" x="1.8347663879394531" y="68.53585815429688">Buyer_3<y:LabelModel>
              <y:SmartNodeLabelModel distance="4.0"/>
            </y:LabelModel>
            <y:ModelParameter>
              <y:SmartNodeLabelModelParameter labelRatioX="0.0" labelRatioY="-0.5" nodeRatioX="0.0" nodeRatioY="0.5" offsetX="0.0" offsetY="4.0" upX="0.0" upY="-1.0"/>
            </y:ModelParameter>
          </y:NodeLabel>
          <y:SVGNodeProperties usingVisualBounds="true"/>
          <y:SVGModel svgBoundsPolicy="0">
            <y:SVGContent refid="3"/>
          </y:SVGModel>
        </y:SVGNode>
      </data>
    </node>
    <node id="n7">
      <data key="d5"/>
      <data key="d6">
        <y:SVGNode>
          <y:Geometry height="70.13700103759766" width="56.558998107910156" x="977.7205009460449" y="738.9314994812012"/>
          <y:Fill color="#CCCCFF" transparent="false"/>
          <y:BorderStyle color="#000000" type="line" width="1.0"/>
          <y:NodeLabel alignment="center" autoSizePolicy="content" fontFamily="Dialog" fontSize="12" fontStyle="plain" hasBackgroundColor="false" hasLineColor="false" height="17.96875" modelName="custom" textColor="#000000" visible="true" width="52.890625" x="1.8341865539550781" y="74.13700103759766">Buyer_2<y:LabelModel>
              <y:SmartNodeLabelModel distance="4.0"/>
            </y:LabelModel>
            <y:ModelParameter>
              <y:SmartNodeLabelModelParameter labelRatioX="0.0" labelRatioY="-0.5" nodeRatioX="0.0" nodeRatioY="0.5" offsetX="0.0" offsetY="4.0" upX="0.0" upY="-1.0"/>
            </y:ModelParameter>
          </y:NodeLabel>
          <y:SVGNodeProperties usingVisualBounds="true"/>
          <y:SVGModel svgBoundsPolicy="0">
            <y:SVGContent refid="4"/>
          </y:SVGModel>
        </y:SVGNode>
      </data>
    </node>
    <node id="n8">
      <data key="d5"/>
      <data key="d6">
        <y:SVGNode>
          <y:Geometry height="64.53585815429688" width="56.554100036621094" x="661.7229499816895" y="607.4222106933594"/>
          <y:Fill color="#CCCCFF" transparent="false"/>
          <y:BorderStyle color="#000000" type="line" width="1.0"/>
          <y:NodeLabel alignment="center" autoSizePolicy="content" fontFamily="Dialog" fontSize="12" fontStyle="plain" hasBackgroundColor="false" hasLineColor="false" height="17.96875" modelName="custom" textColor="#000000" visible="true" width="51.619140625" x="2.467479705810547" y="68.53585815429688">Seller_1<y:LabelModel>
              <y:SmartNodeLabelModel distance="4.0"/>
            </y:LabelModel>
            <y:ModelParameter>
              <y:SmartNodeLabelModelParameter labelRatioX="0.0" labelRatioY="-0.5" nodeRatioX="0.0" nodeRatioY="0.5" offsetX="0.0" offsetY="4.0" upX="0.0" upY="-1.0"/>
            </y:ModelParameter>
          </y:NodeLabel>
          <y:SVGNodeProperties usingVisualBounds="true"/>
          <y:SVGModel svgBoundsPolicy="0">
            <y:SVGContent refid="5"/>
          </y:SVGModel>
        </y:SVGNode>
      </data>
    </node>
    <node id="n9">
      <data key="d5"/>
      <data key="d6">
        <y:SVGNode>
          <y:Geometry height="64.63923645019531" width="56.554100036621094" x="1293.7229499816895" y="610.0770950317383"/>
          <y:Fill color="#CCCCFF" transparent="false"/>
          <y:BorderStyle color="#000000" type="line" width="1.0"/>
          <y:NodeLabel alignment="center" autoSizePolicy="content" fontFamily="Dialog" fontSize="12" fontStyle="plain" hasBackgroundColor="false" hasLineColor="false" height="17.96875" modelName="custom" textColor="#000000" visible="true" width="51.619140625" x="2.467479705810547" y="68.63923645019531">Seller_2<y:LabelModel>
              <y:SmartNodeLabelModel distance="4.0"/>
            </y:LabelModel>
            <y:ModelParameter>
              <y:SmartNodeLabelModelParameter labelRatioX="0.0" labelRatioY="-0.5" nodeRatioX="0.0" nodeRatioY="0.5" offsetX="0.0" offsetY="4.0" upX="0.0" upY="-1.0"/>
            </y:ModelParameter>
          </y:NodeLabel>
          <y:SVGNodeProperties usingVisualBounds="true"/>
          <y:SVGModel svgBoundsPolicy="0">
            <y:SVGContent refid="6"/>
          </y:SVGModel>
        </y:SVGNode>
      </data>
    </node>
    <node id="n10">
      <data key="d5"/>
      <data key="d6">
        <y:SVGNode>
          <y:Geometry height="64.96826171875" width="56.554996490478516" x="1293.722053527832" y="738.9314994812012"/>
          <y:Fill color="#CCCCFF" transparent="false"/>
          <y:BorderStyle color="#000000" type="line" width="1.0"/>
          <y:NodeLabel alignment="center" autoSizePolicy="content" fontFamily="Dialog" fontSize="12" fontStyle="plain" hasBackgroundColor="false" hasLineColor="false" height="17.96875" modelName="custom" textColor="#000000" visible="true" width="51.619140625" x="2.467927932739258" y="68.96826171875">Seller_3<y:LabelModel>
              <y:SmartNodeLabelModel distance="4.0"/>
            </y:LabelModel>
            <y:ModelParameter>
              <y:SmartNodeLabelModelParameter labelRatioX="0.0" labelRatioY="-0.5" nodeRatioX="0.0" nodeRatioY="0.5" offsetX="0.0" offsetY="4.0" upX="0.0" upY="-1.0"/>
            </y:ModelParameter>
          </y:NodeLabel>
          <y:SVGNodeProperties usingVisualBounds="true"/>
          <y:SVGModel svgBoundsPolicy="0">
            <y:SVGContent refid="7"/>
          </y:SVGModel>
        </y:SVGNode>
      </data>
    </node>
    <node id="n11">
      <data key="d5"/>
      <data key="d6">
        <y:SVGNode>
          <y:Geometry height="95.31911087036133" width="85.55500030517578" x="667.2224998474121" y="326.34044456481934"/>
          <y:Fill color="#CCCCFF" transparent="false"/>
          <y:BorderStyle color="#000000" type="line" width="1.0"/>
          <y:NodeLabel alignment="center" autoSizePolicy="content" fontFamily="Dialog" fontSize="12" fontStyle="plain" hasBackgroundColor="false" hasLineColor="false" height="17.96875" modelName="custom" textColor="#000000" visible="true" width="104.96875" x="-9.70687484741211" y="99.31911087036133">MarketController<y:LabelModel>
              <y:SmartNodeLabelModel distance="4.0"/>
            </y:LabelModel>
            <y:ModelParameter>
              <y:SmartNodeLabelModelParameter labelRatioX="0.0" labelRatioY="-0.5" nodeRatioX="0.0" nodeRatioY="0.5" offsetX="0.0" offsetY="4.0" upX="0.0" upY="-1.0"/>
            </y:ModelParameter>
          </y:NodeLabel>
          <y:SVGNodeProperties usingVisualBounds="true"/>
          <y:SVGModel svgBoundsPolicy="0">
            <y:SVGContent refid="8"/>
          </y:SVGModel>
        </y:SVGNode>
      </data>
    </node>
    <edge id="e0" source="n8" target="n5">
      <data key="d9"/>
      <data key="d10">
        <y:PolyLineEdge>
          <y:Path sx="0.0" sy="0.0" tx="0.0" ty="0.0"/>
          <y:LineStyle color="#000000" type="line" width="1.0"/>
          <y:Arrows source="standard" target="standard"/>
          <y:EdgeLabel alignment="center" configuration="AutoFlippingLabel" distance="2.0" fontFamily="Dialog" fontSize="12" fontStyle="plain" hasBackgroundColor="false" hasLineColor="false" height="17.96875" modelName="custom" preferredPlacement="anywhere" ratio="0.5" textColor="#000000" visible="true" width="19.251953125" x="133.98583984375" y="22.246797416907157">d1<y:LabelModel>
              <y:SmartEdgeLabelModel autoRotationEnabled="false" defaultAngle="0.0" defaultDistance="10.0"/>
            </y:LabelModel>
            <y:ModelParameter>
              <y:SmartEdgeLabelModelParameter angle="0.0" distance="30.0" distanceToCenter="true" position="right" ratio="0.5" segment="0"/>
            </y:ModelParameter>
            <y:PreferredPlacementDescriptor angle="0.0" angleOffsetOnRightSide="0" angleReference="absolute" angleRotationOnRightSide="co" distance="-1.0" frozen="true" placement="anywhere" side="anywhere" sideReference="relative_to_edge_flow"/>
          </y:EdgeLabel>
          <y:BendStyle smoothed="false"/>
        </y:PolyLineEdge>
      </data>
    </edge>
    <edge id="e1" source="n5" target="n9">
      <data key="d9"/>
      <data key="d10">
        <y:PolyLineEdge>
          <y:Path sx="0.0" sy="0.0" tx="0.0" ty="0.0"/>
          <y:LineStyle color="#000000" type="line" width="1.0"/>
          <y:Arrows source="standard" target="standard"/>
          <y:EdgeLabel alignment="center" configuration="AutoFlippingLabel" distance="2.0" fontFamily="Dialog" fontSize="12" fontStyle="plain" hasBackgroundColor="false" hasLineColor="false" height="17.96875" modelName="custom" preferredPlacement="anywhere" ratio="0.5" textColor="#000000" visible="true" width="19.251953125" x="132.98291015625" y="21.015609741210938">d4<y:LabelModel>
              <y:SmartEdgeLabelModel autoRotationEnabled="false" defaultAngle="0.0" defaultDistance="10.0"/>
            </y:LabelModel>
            <y:ModelParameter>
              <y:SmartEdgeLabelModelParameter angle="0.0" distance="30.0" distanceToCenter="true" position="right" ratio="0.5" segment="0"/>
            </y:ModelParameter>
            <y:PreferredPlacementDescriptor angle="0.0" angleOffsetOnRightSide="0" angleReference="absolute" angleRotationOnRightSide="co" distance="-1.0" frozen="true" placement="anywhere" side="anywhere" sideReference="relative_to_edge_flow"/>
          </y:EdgeLabel>
          <y:BendStyle smoothed="false"/>
        </y:PolyLineEdge>
      </data>
    </edge>
    <edge id="e2" source="n7" target="n10">
      <data key="d9"/>
      <data key="d10">
        <y:PolyLineEdge>
          <y:Path sx="0.0" sy="0.0" tx="0.0" ty="0.0"/>
          <y:LineStyle color="#000000" type="line" width="1.0"/>
          <y:Arrows source="standard" target="standard"/>
          <y:EdgeLabel alignment="center" configuration="AutoFlippingLabel" distance="2.0" fontFamily="Dialog" fontSize="12" fontStyle="plain" hasBackgroundColor="false" hasLineColor="false" height="17.96875" modelName="custom" preferredPlacement="anywhere" ratio="0.5" textColor="#000000" visible="true" width="19.251953125" x="132.98368644714355" y="19.850289756559732">d6<y:LabelModel>
              <y:SmartEdgeLabelModel autoRotationEnabled="false" defaultAngle="0.0" defaultDistance="10.0"/>
            </y:LabelModel>
            <y:ModelParameter>
              <y:SmartEdgeLabelModelParameter angle="0.0" distance="30.0" distanceToCenter="true" position="right" ratio="0.5" segment="0"/>
            </y:ModelParameter>
            <y:PreferredPlacementDescriptor angle="0.0" angleOffsetOnRightSide="0" angleReference="absolute" angleRotationOnRightSide="co" distance="-1.0" frozen="true" placement="anywhere" side="anywhere" sideReference="relative_to_edge_flow"/>
          </y:EdgeLabel>
          <y:BendStyle smoothed="false"/>
        </y:PolyLineEdge>
      </data>
    </edge>
    <edge id="e3" source="n6" target="n10">
      <data key="d9"/>
      <data key="d10">
        <y:PolyLineEdge>
          <y:Path sx="0.0" sy="0.0" tx="0.0" ty="0.0"/>
          <y:LineStyle color="#000000" type="line" width="1.0"/>
          <y:Arrows source="standard" target="standard"/>
          <y:EdgeLabel alignment="center" configuration="AutoFlippingLabel" distance="2.0" fontFamily="Dialog" fontSize="12" fontStyle="plain" hasBackgroundColor="false" hasLineColor="false" height="17.96875" modelName="custom" preferredPlacement="anywhere" ratio="0.5" textColor="#000000" visible="true" width="19.251953125" x="136.63881111867113" y="-37.349008594856286">d7<y:LabelModel>
              <y:SmartEdgeLabelModel autoRotationEnabled="false" defaultAngle="0.0" defaultDistance="10.0"/>
            </y:LabelModel>
            <y:ModelParameter>
              <y:SmartEdgeLabelModelParameter angle="0.0" distance="30.0" distanceToCenter="true" position="right" ratio="0.5" segment="0"/>
            </y:ModelParameter>
            <y:PreferredPlacementDescriptor angle="0.0" angleOffsetOnRightSide="0" angleReference="absolute" angleRotationOnRightSide="co" distance="-1.0" frozen="true" placement="anywhere" side="anywhere" sideReference="relative_to_edge_flow"/>
          </y:EdgeLabel>
          <y:BendStyle smoothed="false"/>
        </y:PolyLineEdge>
      </data>
    </edge>
    <edge id="e4" source="n8" target="n7">
      <data key="d9"/>
      <data key="d10">
        <y:PolyLineEdge>
          <y:Path sx="0.0" sy="0.0" tx="0.0" ty="0.0"/>
          <y:LineStyle color="#000000" type="line" width="1.0"/>
          <y:Arrows source="standard" target="standard"/>
          <y:EdgeLabel alignment="center" configuration="AutoFlippingLabel" distance="2.0" fontFamily="Dialog" fontSize="12" fontStyle="plain" hasBackgroundColor="false" hasLineColor="false" height="17.96875" modelName="custom" preferredPlacement="anywhere" ratio="0.5" textColor="#000000" visible="true" width="19.251953125" x="132.4540118345601" y="84.00141677272313">d2<y:LabelModel>
              <y:SmartEdgeLabelModel autoRotationEnabled="false" defaultAngle="0.0" defaultDistance="10.0"/>
            </y:LabelModel>
            <y:ModelParameter>
              <y:SmartEdgeLabelModelParameter angle="0.0" distance="30.0" distanceToCenter="true" position="right" ratio="0.5" segment="0"/>
            </y:ModelParameter>
            <y:PreferredPlacementDescriptor angle="0.0" angleOffsetOnRightSide="0" angleReference="absolute" angleRotationOnRightSide="co" distance="-1.0" frozen="true" placement="anywhere" side="anywhere" sideReference="relative_to_edge_flow"/>
          </y:EdgeLabel>
          <y:BendStyle smoothed="false"/>
        </y:PolyLineEdge>
      </data>
    </edge>
    <edge id="e5" source="n8" target="n6">
      <data key="d9"/>
      <data key="d10">
        <y:PolyLineEdge>
          <y:Path sx="0.0" sy="0.0" tx="0.0" ty="0.0"/>
          <y:LineStyle color="#000000" type="line" width="1.0"/>
          <y:Arrows source="standard" target="standard"/>
          <y:EdgeLabel alignment="center" configuration="AutoFlippingLabel" distance="2.0" fontFamily="Dialog" fontSize="12" fontStyle="plain" hasBackgroundColor="false" hasLineColor="false" height="17.96875" modelName="custom" preferredPlacement="anywhere" ratio="0.5" textColor="#000000" visible="true" width="19.251953125" x="102.88410455592577" y="123.77242755152702">d3<y:LabelModel>
              <y:SmartEdgeLabelModel autoRotationEnabled="false" defaultAngle="0.0" defaultDistance="10.0"/>
            </y:LabelModel>
            <y:ModelParameter>
              <y:SmartEdgeLabelModelParameter angle="0.0" distance="30.0" distanceToCenter="true" position="right" ratio="0.5" segment="0"/>
            </y:ModelParameter>
            <y:PreferredPlacementDescriptor angle="0.0" angleOffsetOnRightSide="0" angleReference="absolute" angleRotationOnRightSide="co" distance="-1.0" frozen="true" placement="anywhere" side="anywhere" sideReference="relative_to_edge_flow"/>
          </y:EdgeLabel>
          <y:BendStyle smoothed="false"/>
        </y:PolyLineEdge>
      </data>
    </edge>
    <edge id="e6" source="n5" target="n10">
      <data key="d9"/>
      <data key="d10">
        <y:PolyLineEdge>
          <y:Path sx="0.0" sy="0.0" tx="0.0" ty="0.0"/>
          <y:LineStyle color="#000000" type="line" width="1.0"/>
          <y:Arrows source="standard" target="standard"/>
          <y:EdgeLabel alignment="center" configuration="AutoFlippingLabel" distance="2.0" fontFamily="Dialog" fontSize="12" fontStyle="plain" hasBackgroundColor="false" hasLineColor="false" height="17.96875" modelName="custom" preferredPlacement="anywhere" ratio="0.5" textColor="#000000" visible="true" width="19.251953125" x="134.8130602922622" y="82.39255039962143">d5<y:LabelModel>
              <y:SmartEdgeLabelModel autoRotationEnabled="false" defaultAngle="0.0" defaultDistance="10.0"/>
            </y:LabelModel>
            <y:ModelParameter>
              <y:SmartEdgeLabelModelParameter angle="0.0" distance="30.0" distanceToCenter="true" position="right" ratio="0.5" segment="0"/>
            </y:ModelParameter>
            <y:PreferredPlacementDescriptor angle="0.0" angleOffsetOnRightSide="0" angleReference="absolute" angleRotationOnRightSide="co" distance="-1.0" frozen="true" placement="anywhere" side="anywhere" sideReference="relative_to_edge_flow"/>
          </y:EdgeLabel>
          <y:BendStyle smoothed="false"/>
        </y:PolyLineEdge>
      </data>
    </edge>
    <edge id="e7" source="n11" target="n3">
      <data key="d9"/>
      <data key="d10">
        <y:PolyLineEdge>
          <y:Path sx="0.0" sy="0.0" tx="0.0" ty="0.0"/>
          <y:LineStyle color="#000000" type="line" width="1.0"/>
          <y:Arrows source="none" target="standard"/>
          <y:BendStyle smoothed="false"/>
        </y:PolyLineEdge>
      </data>
    </edge>
    <edge id="e8" source="n11" target="n2">
      <data key="d9"/>
      <data key="d10">
        <y:PolyLineEdge>
          <y:Path sx="0.0" sy="-19.0" tx="0.0" ty="0.0">
            <y:Point x="1096.0" y="355.0"/>
            <y:Point x="1096.0" y="313.0"/>
            <y:Point x="1246.0" y="313.0"/>
            <y:Point x="1246.0" y="374.0"/>
          </y:Path>
          <y:LineStyle color="#000000" type="line" width="1.0"/>
          <y:Arrows source="none" target="standard"/>
          <y:BendStyle smoothed="false"/>
        </y:PolyLineEdge>
      </data>
    </edge>
    <edge id="e9" source="n4" target="n3">
      <data key="d9"/>
      <data key="d10">
        <y:PolyLineEdge>
          <y:Path sx="0.0" sy="0.0" tx="-11.780078887939453" ty="18.0">
            <y:Point x="1133.0" y="522.3036051227772"/>
            <y:Point x="1133.0" y="394.0"/>
          </y:Path>
          <y:LineStyle color="#000000" type="dashed" width="1.0"/>
          <y:Arrows source="none" target="standard"/>
          <y:BendStyle smoothed="false"/>
        </y:PolyLineEdge>
      </data>
    </edge>
    <edge id="e10" source="n4" target="n2">
      <data key="d9"/>
      <data key="d10">
        <y:PolyLineEdge>
          <y:Path sx="0.0" sy="0.0" tx="0.0" ty="0.0">
            <y:Point x="1361.9995498657227" y="522.3036051227772"/>
            <y:Point x="1361.9995498657227" y="374.0"/>
          </y:Path>
          <y:LineStyle color="#000000" type="dashed" width="1.0"/>
          <y:Arrows source="none" target="standard"/>
          <y:BendStyle smoothed="false"/>
        </y:PolyLineEdge>
      </data>
    </edge>
  </graph>
  <data key="d0">
    <y:Resources>
      <y:Resource id="1">&lt;?xml version="1.0" encoding="utf-8"?&gt;
&lt;!-- Generator: Adobe Illustrator 15.0.2, SVG Export Plug-In . SVG Version: 6.00 Build 0)  --&gt;
&lt;!DOCTYPE svg PUBLIC "-//W3C//DTD SVG 1.1//EN" "http://www.w3.org/Graphics/SVG/1.1/DTD/svg11.dtd"&gt;
&lt;svg version="1.1" id="Ebene_1" xmlns="http://www.w3.org/2000/svg" xmlns:xlink="http://www.w3.org/1999/xlink" x="0px" y="0px"
	 width="57px" height="65px" viewBox="0 0 57 65" enable-background="new 0 0 57 65" xml:space="preserve"&gt;
&lt;g&gt;
	
		&lt;linearGradient id="SVGID_1_" gradientUnits="userSpaceOnUse" x1="26.4199" y1="2343.0352" x2="27.6608" y2="2372.8335" gradientTransform="matrix(1 0 0 1 0.2402 -2319.0742)"&gt;
		&lt;stop  offset="0.2711" style="stop-color:#FFAB4F"/&gt;
		&lt;stop  offset="1" style="stop-color:#FFD28F"/&gt;
	&lt;/linearGradient&gt;
	&lt;path fill="url(#SVGID_1_)" stroke="#ED9135" stroke-miterlimit="10" d="M49.529,51.225c-4.396-4.396-10.951-5.884-12.063-6.109
		V37.8H19.278c0,0,0.038,6.903,0,6.868c0,0-6.874,0.997-12.308,6.432C1.378,56.691,0.5,62.77,0.5,62.77
		c0,1.938,1.575,3.492,3.523,3.492h48.51c1.947,0,3.521-1.558,3.521-3.492C56.055,62.768,54.211,55.906,49.529,51.225z"/&gt;
	&lt;path fill="none" stroke="#4B4B4B" stroke-miterlimit="10" d="M45.963,22.823c0.021-0.378,0.051-0.753,0.051-1.137
		c0-11.08-7.916-19.062-17.678-19.062c-9.765,0-17.682,7.981-17.682,19.062c0,0.357,0.031,0.705,0.047,1.057
		C16.139,21.735,40.396,21.762,45.963,22.823z"/&gt;
	&lt;path fill="#4B4B4B" d="M46.113,31.724c0.24-0.548,0.517-1.453,0.822-2.948c0.305-1.48,0.408-2.426,0.404-3.034l1.266,0.26
		c0.023,0.438-0.069,1.52-0.383,3.039c-0.313,1.52-0.65,2.551-0.846,2.943L46.113,31.724z"/&gt;
	&lt;path fill="#4B4B4B" d="M47.816,26.351l0.283,0.058c-0.026,0.497-0.123,1.353-0.365,2.532c-0.242,1.179-0.49,2.004-0.661,2.471
		l-0.281-0.058c0.201-0.595,0.413-1.396,0.635-2.477C47.645,27.809,47.768,26.986,47.816,26.351 M46.708,25.102
		c0.25,0.052,0.133,1.652-0.263,3.574c-0.387,1.891-0.897,3.389-1.153,3.389c-0.005,0-0.01,0-0.015-0.001l2.269,0.465
		c0.004,0.001,0.011,0.001,0.019,0.001c0.256,0,0.768-1.499,1.149-3.389c0.396-1.922,0.519-3.522,0.267-3.574L46.708,25.102
		L46.708,25.102z"/&gt;
	
		&lt;linearGradient id="SVGID_2_" gradientUnits="userSpaceOnUse" x1="46.4893" y1="2340.873" x2="40.904" y2="2363.7446" gradientTransform="matrix(1 0 0 1 0.2402 -2319.0742)"&gt;
		&lt;stop  offset="0" style="stop-color:#D0D0D0"/&gt;
		&lt;stop  offset="0.7289" style="stop-color:#4B4B4B"/&gt;
	&lt;/linearGradient&gt;
	&lt;path fill="url(#SVGID_2_)" d="M42.068,34.141c0.693-1.254,1.312-3.722,1.757-5.894c0.596-2.901,0.829-4.943,0.704-6.108
		l3.228,0.662c0.108,0.562,0.022,2.665-0.685,6.113c-0.707,3.447-1.457,5.413-1.78,5.887L42.068,34.141z"/&gt;
	&lt;path fill="#4B4B4B" d="M45.076,22.761l2.22,0.456c0.033,0.838-0.146,2.83-0.713,5.597c-0.565,2.765-1.188,4.667-1.549,5.424
		l-2.232-0.459c0.447-1.039,0.957-2.717,1.519-5.431C44.866,25.66,45.07,23.908,45.076,22.761 M43.82,21.483
		c0.47,0.096,0.25,3.08-0.485,6.664c-0.724,3.525-1.679,6.319-2.153,6.319c-0.009,0-0.017-0.001-0.021-0.002l4.229,0.867
		c0.01,0.002,0.018,0.002,0.021,0.002c0.479,0,1.436-2.793,2.154-6.317c0.73-3.584,0.955-6.568,0.482-6.664L43.82,21.483
		L43.82,21.483z"/&gt;
	&lt;path fill="#4B4B4B" d="M9.56,31.984c-0.193-0.393-0.534-1.424-0.846-2.943c-0.312-1.52-0.405-2.602-0.382-3.039l1.266-0.259
		c-0.005,0.607,0.101,1.554,0.404,3.034c0.306,1.495,0.583,2.4,0.824,2.948L9.56,31.984z"/&gt;
	&lt;path fill="#4B4B4B" d="M9.121,26.351c0.049,0.635,0.173,1.458,0.392,2.525c0.221,1.081,0.433,1.882,0.634,2.477l-0.281,0.058
		c-0.171-0.467-0.419-1.292-0.662-2.471c-0.242-1.179-0.339-2.035-0.365-2.532L9.121,26.351 M10.232,25.102l-2.268,0.465
		c-0.251,0.052-0.134,1.652,0.261,3.574c0.388,1.89,0.9,3.389,1.155,3.389c0.004,0,0.009,0,0.013-0.001l2.268-0.465
		c-0.004,0.001-0.008,0.001-0.013,0.001c-0.255,0-0.768-1.499-1.155-3.389C10.098,26.754,9.981,25.154,10.232,25.102L10.232,25.102z
		"/&gt;
	
		&lt;linearGradient id="SVGID_3_" gradientUnits="userSpaceOnUse" x1="13.4102" y1="2340.7666" x2="7.7735" y2="2363.8494" gradientTransform="matrix(1 0 0 1 0.2402 -2319.0742)"&gt;
		&lt;stop  offset="0" style="stop-color:#D0D0D0"/&gt;
		&lt;stop  offset="0.7289" style="stop-color:#4B4B4B"/&gt;
	&lt;/linearGradient&gt;
	&lt;path fill="url(#SVGID_3_)" d="M11.616,34.801c-0.323-0.474-1.073-2.44-1.781-5.887c-0.708-3.448-0.792-5.551-0.683-6.113
		l3.226-0.662c-0.125,1.166,0.11,3.207,0.705,6.108c0.446,2.172,1.062,4.639,1.756,5.894L11.616,34.801z"/&gt;
	&lt;path fill="#4B4B4B" d="M11.833,22.761c0.004,1.147,0.209,2.898,0.761,5.586c0.557,2.714,1.065,4.393,1.512,5.432l-2.232,0.457
		c-0.361-0.756-0.981-2.658-1.549-5.423c-0.567-2.767-0.747-4.759-0.713-5.597L11.833,22.761 M13.088,21.483l-4.229,0.868
		c-0.469,0.096-0.249,3.08,0.486,6.664c0.723,3.524,1.678,6.317,2.154,6.317c0.008,0,0.016,0,0.023-0.002l4.228-0.867
		c-0.008,0.001-0.016,0.002-0.023,0.002c-0.475,0-1.431-2.794-2.154-6.319C12.838,24.563,12.619,21.579,13.088,21.483L13.088,21.483
		z"/&gt;
	
		&lt;radialGradient id="face_x5F_white_1_" cx="27.6626" cy="2344.8008" r="23.425" fx="23.093" fy="2342.311" gradientTransform="matrix(1 0 0 1 0.2402 -2319.0742)" gradientUnits="userSpaceOnUse"&gt;
		&lt;stop  offset="0" style="stop-color:#FFD28F"/&gt;
		&lt;stop  offset="1" style="stop-color:#FFAB4F"/&gt;
	&lt;/radialGradient&gt;
	&lt;path id="face_x5F_white_3_" fill="url(#face_x5F_white_1_)" stroke="#ED9135" stroke-miterlimit="10" d="M43.676,23.357
		c0.086,10.2-6.738,18.52-15.249,18.586c-8.5,0.068-15.464-8.146-15.55-18.344C12.794,13.4,19.618,5.079,28.123,5.012
		C36.627,4.945,43.59,13.158,43.676,23.357z"/&gt;
	
		&lt;linearGradient id="face_highlight_1_" gradientUnits="userSpaceOnUse" x1="5056.6748" y1="-9466.8486" x2="5080.3042" y2="-9560.2988" gradientTransform="matrix(0.275 0 0 -0.2733 -1365.09 -2579.0444)"&gt;
		&lt;stop  offset="0" style="stop-color:#FFFFFF;stop-opacity:0.24"/&gt;
		&lt;stop  offset="1" style="stop-color:#FFFFFF;stop-opacity:0.16"/&gt;
	&lt;/linearGradient&gt;
	&lt;path id="face_highlight_3_" fill="url(#face_highlight_1_)" d="M27.958,6.333c-6.035,0.047-10.747,4.493-12.787,10.386
		c-0.664,1.919-0.294,4.043,0.98,5.629c2.73,3.398,5.729,6.283,9.461,8.088c3.137,1.518,7.535,2.385,11.893,1.247
		c2.274-0.592,3.988-2.459,4.375-4.766c0.185-1.094,0.293-2.289,0.283-3.553C42.083,13.952,36.271,6.268,27.958,6.333z"/&gt;
	&lt;path fill="#D0D0D0" stroke="#9B9B9B" stroke-width="0.9271" stroke-linecap="round" stroke-linejoin="round" d="M28.02,31.921
		c-6.78,0-6.717,3.708-6.717,3.708c0,8.133,2.985,8.788,6.955,8.788c4.243,0,6.792-0.926,6.792-8.595
		C35.051,35.822,35.881,31.921,28.02,31.921z M23.989,35.678c0-0.556,1.838-1.005,4.107-1.005c2.27,0,4.107,0.449,4.107,1.005
		C32.204,36.232,23.989,36.232,23.989,35.678z"/&gt;
	&lt;path fill="none" stroke="#4B4B4B" stroke-miterlimit="10" d="M24.028,37.799c-2.04,0.127-7.98-2.511-10.435-3.941
		c-1.519-0.885-3.79-2.722-4.19-3.231"/&gt;
	&lt;path fill="#4B4B4B" stroke="#4B4B4B" stroke-miterlimit="10" d="M28.941,37.799c0,0.292-2.085,0.529-3.425,0.529
		c-1.339,0-2.425-0.237-2.425-0.529s1.086-0.529,2.425-0.529C26.856,37.27,28.941,37.507,28.941,37.799z"/&gt;
	&lt;path fill="#656565" stroke="#4B4B4B" stroke-linejoin="round" stroke-miterlimit="10" d="M15.038,26.653
		c0.145,2.05,3.468,2.593,6.477,2.56c2.298-0.026,3.25-0.889,4.746-2.685c2.539-3.05-0.767-3.715-4.817-3.67
		C15.984,22.919,14.777,22.933,15.038,26.653z"/&gt;
	&lt;path fill="#656565" stroke="#4B4B4B" stroke-linejoin="round" stroke-miterlimit="10" d="M41.116,26.653
		c-0.146,2.05-3.47,2.593-6.478,2.56c-2.299-0.026-3.252-0.889-4.746-2.685c-2.538-3.05,0.769-3.715,4.816-3.67
		C40.17,22.919,41.377,22.933,41.116,26.653z"/&gt;
	&lt;path fill="none" stroke="#4B4B4B" stroke-linecap="round" stroke-linejoin="round" stroke-miterlimit="10" d="M27.453,24.375
		c0,0,0.604-0.469,1.305,0"/&gt;
	
		&lt;line fill="none" stroke="#4B4B4B" stroke-linecap="round" stroke-miterlimit="10" x1="41.727" y1="24.592" x2="41.844" y2="25.375"/&gt;
	
		&lt;line fill="none" stroke="#4B4B4B" stroke-linecap="round" stroke-miterlimit="10" x1="42.165" y1="24.938" x2="44.027" y2="24.938"/&gt;
	
		&lt;line fill="none" stroke="#4B4B4B" stroke-linecap="round" stroke-miterlimit="10" x1="14.374" y1="24.592" x2="14.257" y2="25.375"/&gt;
	
		&lt;line fill="none" stroke="#4B4B4B" stroke-linecap="round" stroke-miterlimit="10" x1="13.937" y1="24.938" x2="12.073" y2="24.938"/&gt;
	
		&lt;radialGradient id="body_1_" cx="27.2378" cy="5.9858" r="28.5025" fx="14.869" fy="3.6317" gradientTransform="matrix(1 0 0 -1 0.04 64.1543)" gradientUnits="userSpaceOnUse"&gt;
		&lt;stop  offset="0" style="stop-color:#B2B2B2"/&gt;
		&lt;stop  offset="1" style="stop-color:#757473"/&gt;
	&lt;/radialGradient&gt;
	&lt;path id="body_9_" fill="url(#body_1_)" stroke="#4B4B4B" d="M0.5,62.768c0,1.938,1.575,3.494,3.523,3.494h48.51
		c1.947,0,3.521-1.559,3.521-3.494c0,0-1.844-6.861-6.525-11.543c-4.815-4.813-11.244-6.146-11.244-6.146
		c-1.771,1.655-5.61,2.802-10.063,2.802c-4.453,0-8.292-1.146-10.063-2.802c0,0-5.755,0.586-11.189,6.021
		C1.378,56.689,0.5,62.768,0.5,62.768z"/&gt;
	
		&lt;radialGradient id="turtleneck_1_" cx="27.9443" cy="16.2813" r="11.8874" fx="22.7857" fy="15.2994" gradientTransform="matrix(1 0 0 -1 0.04 64.1543)" gradientUnits="userSpaceOnUse"&gt;
		&lt;stop  offset="0" style="stop-color:#B2B2B2"/&gt;
		&lt;stop  offset="1" style="stop-color:#757473"/&gt;
	&lt;/radialGradient&gt;
	&lt;path id="turtleneck_6_" fill="url(#turtleneck_1_)" stroke="#4B4B4B" d="M39.715,44.786l-1.557-3.405c0,0-0.574,2.369-3.012,4.441
		c-2.109,1.795-6.785,2.072-6.785,2.072s-4.753-0.356-6.722-2.031c-2.436-2.072-3.012-4.441-3.012-4.441l-1.555,3.404
		c0,0-0.552,1.404,1.37,3.479c1.025,1.105,5.203,3.611,9.682,3.582c4.479-0.029,9.264-2.594,10.218-3.623
		C40.266,46.191,39.715,44.786,39.715,44.786z"/&gt;
	&lt;path id="wh2_1_" fill="#9B9B9B" stroke="#4B4B4B" stroke-linecap="round" stroke-linejoin="round" stroke-miterlimit="10" d="
		M28.277,15.5c5.635,0,10.827,1.416,14.979,3.794c-1.615-8.228-7.795-14.34-15.132-14.282c-7.272,0.057-13.299,6.155-14.846,14.294
		C17.434,16.921,22.632,15.5,28.277,15.5z"/&gt;
	&lt;path id="wh1_1_" fill="#9B9B9B" stroke="#4B4B4B" stroke-linecap="round" stroke-linejoin="round" stroke-miterlimit="10" d="
		M28.278,20.808c5.662,0,11.938,0.811,16.391,2.207c-0.11-2.059-0.272-2.826-0.412-3.72c-4.155-2.379-10.345-3.795-15.98-3.795
		c-5.644,0-11.842,1.421-16,3.807c-0.228,1.197-0.362,2.436-0.388,3.707C16.343,21.618,22.618,20.808,28.278,20.808z"/&gt;
&lt;/g&gt;
&lt;/svg&gt;
</y:Resource>
      <y:Resource id="2">&lt;?xml version="1.0" encoding="utf-8"?&gt;
&lt;!-- Generator: Adobe Illustrator 15.0.2, SVG Export Plug-In . SVG Version: 6.00 Build 0)  --&gt;
&lt;!DOCTYPE svg PUBLIC "-//W3C//DTD SVG 1.1//EN" "http://www.w3.org/Graphics/SVG/1.1/DTD/svg11.dtd"&gt;
&lt;svg version="1.1" id="Ebene_1" xmlns="http://www.w3.org/2000/svg" xmlns:xlink="http://www.w3.org/1999/xlink" x="0px" y="0px"
	 width="57px" height="65px" viewBox="0 0 57 65" enable-background="new 0 0 57 65" xml:space="preserve"&gt;
&lt;g&gt;
	
		&lt;linearGradient id="SVGID_1_" gradientUnits="userSpaceOnUse" x1="26.5396" y1="-732.5005" x2="27.7805" y2="-762.2984" gradientTransform="matrix(1 0 0 -1 0.1201 -708.5371)"&gt;
		&lt;stop  offset="0.2711" style="stop-color:#FFAB4F"/&gt;
		&lt;stop  offset="1" style="stop-color:#FFD28F"/&gt;
	&lt;/linearGradient&gt;
	&lt;path fill="url(#SVGID_1_)" stroke="#ED9135" stroke-miterlimit="10" d="M49.529,51.225c-4.396-4.396-10.951-5.884-12.063-6.109
		V37.8H19.278c0,0,0.038,6.903,0,6.868c0,0-6.874,0.997-12.308,6.432C1.378,56.691,0.5,62.77,0.5,62.77
		c0,1.938,1.575,3.492,3.523,3.492h48.51c1.947,0,3.521-1.558,3.521-3.492C56.055,62.768,54.211,55.906,49.529,51.225z"/&gt;
	
		&lt;radialGradient id="face_x5F_white_1_" cx="27.7827" cy="-734.2632" r="23.424" fx="23.2131" fy="-736.753" gradientTransform="matrix(1 0 0 -1 0.1201 -708.5371)" gradientUnits="userSpaceOnUse"&gt;
		&lt;stop  offset="0" style="stop-color:#FFD28F"/&gt;
		&lt;stop  offset="1" style="stop-color:#FFAB4F"/&gt;
	&lt;/radialGradient&gt;
	&lt;path id="face_x5F_white_3_" fill="url(#face_x5F_white_1_)" stroke="#ED9135" stroke-miterlimit="10" d="M43.676,23.357
		c0.086,10.2-6.738,18.52-15.246,18.586c-8.503,0.068-15.467-8.146-15.553-18.344C12.794,13.4,19.618,5.079,28.123,5.012
		C36.627,4.945,43.59,13.158,43.676,23.357z"/&gt;
	
		&lt;linearGradient id="face_highlight_1_" gradientUnits="userSpaceOnUse" x1="2941.4297" y1="5677.457" x2="2965.0596" y2="5770.9087" gradientTransform="matrix(0.275 0 0 0.2733 -783.3976 -1543.4047)"&gt;
		&lt;stop  offset="0" style="stop-color:#FFFFFF;stop-opacity:0.42"/&gt;
		&lt;stop  offset="1" style="stop-color:#FFFFFF;stop-opacity:0.2067"/&gt;
	&lt;/linearGradient&gt;
	&lt;path id="face_highlight_3_" fill="url(#face_highlight_1_)" d="M27.958,6.333c-6.035,0.047-10.747,4.493-12.787,10.386
		c-0.664,1.919-0.294,4.043,0.98,5.629c2.73,3.398,5.729,6.283,9.461,8.088c3.137,1.518,7.535,2.385,11.893,1.247
		c2.274-0.592,3.988-2.459,4.375-4.766c0.183-1.094,0.293-2.289,0.283-3.553C42.083,13.952,36.271,6.268,27.958,6.333z"/&gt;
	&lt;path fill="#CC9869" stroke="#99724F" stroke-linecap="round" stroke-linejoin="round" d="M32.215,9.938
		c0,0,5.688,2.75,7.688,8.125c2.104,5.652,4.123,8.232,4.188,8c1.875-6.794,1.063-21.438-10.17-21.587
		c-20.455-7.663-25.58,11.962-23.893,19.65c1.078,4.911,2.234,6.686,3.938,8.08C13.966,32.205,15.028,17.563,32.215,9.938z"/&gt;
	
		&lt;radialGradient id="collar_x5F_body_2_" cx="15.1587" cy="-765.7056" r="32.4004" gradientTransform="matrix(1 0 0 -1 0.1201 -708.5371)" gradientUnits="userSpaceOnUse"&gt;
		&lt;stop  offset="0" style="stop-color:#B0E8FF"/&gt;
		&lt;stop  offset="1" style="stop-color:#74AEEE"/&gt;
	&lt;/radialGradient&gt;
	&lt;path id="collar_x5F_body_1_" fill="url(#collar_x5F_body_2_)" stroke="#5491CF" d="M0.5,62.768c0,1.938,1.575,3.494,3.523,3.494
		h48.51c1.947,0,3.521-1.559,3.521-3.494c0,0-1.844-6.861-6.525-11.543c-4.815-4.813-11.244-6.146-11.244-6.146
		c-1.771,1.655-5.61,2.802-10.063,2.802c-4.453,0-8.292-1.146-10.063-2.802c0,0-5.755,0.586-11.189,6.021
		C1.378,56.689,0.5,62.768,0.5,62.768z"/&gt;
	
		&lt;radialGradient id="collar_x5F_r_2_" cx="31.5" cy="-755.832" r="9.2834" gradientTransform="matrix(1 0 0 -1 0.1201 -708.5371)" gradientUnits="userSpaceOnUse"&gt;
		&lt;stop  offset="0" style="stop-color:#80CCFF"/&gt;
		&lt;stop  offset="1" style="stop-color:#74AEEE"/&gt;
	&lt;/radialGradient&gt;
	&lt;path id="collar_x5F_r_1_" fill="url(#collar_x5F_r_2_)" stroke="#5491CF" d="M38.159,41.381c0,0-0.574,2.369-3.013,4.441
		c-2.108,1.795-5.783,2.072-5.783,2.072l3.974,6.217c0,0,2.957-1.637,5.009-3.848c1.922-2.072,1.37-5.479,1.37-5.479L38.159,41.381z
		"/&gt;
	
		&lt;radialGradient id="collar_x5F_l_2_" cx="19.1377" cy="-755.873" r="9.2837" gradientTransform="matrix(1 0 0 -1 0.1201 -708.5371)" gradientUnits="userSpaceOnUse"&gt;
		&lt;stop  offset="0" style="stop-color:#80CCFF"/&gt;
		&lt;stop  offset="1" style="stop-color:#74AEEE"/&gt;
	&lt;/radialGradient&gt;
	&lt;path id="collar_x5F_l_1_" fill="url(#collar_x5F_l_2_)" stroke="#5491CF" d="M18.63,41.422c0,0,0.576,2.369,3.012,4.441
		c2.109,1.793,5.785,2.072,5.785,2.072l-3.974,6.217c0,0-2.957-1.637-5.007-3.85c-1.922-2.072-1.37-5.48-1.37-5.48L18.63,41.422z"/&gt;
	
		&lt;radialGradient id="Knob2_2_" cx="27.8872" cy="7.9414" r="0.9669" gradientTransform="matrix(1 0 0 -1 0.04 64.1543)" gradientUnits="userSpaceOnUse"&gt;
		&lt;stop  offset="0" style="stop-color:#80CCFF"/&gt;
		&lt;stop  offset="1" style="stop-color:#74AEEE"/&gt;
	&lt;/radialGradient&gt;
	&lt;circle id="Knob2_1_" fill="url(#Knob2_2_)" stroke="#5491CF" cx="28.258" cy="56.254" r="0.584"/&gt;
	
		&lt;radialGradient id="Knob1_2_" cx="27.9253" cy="1.6973" r="0.9669" gradientTransform="matrix(1 0 0 -1 0.04 64.1543)" gradientUnits="userSpaceOnUse"&gt;
		&lt;stop  offset="0" style="stop-color:#80CCFF"/&gt;
		&lt;stop  offset="1" style="stop-color:#74AEEE"/&gt;
	&lt;/radialGradient&gt;
	&lt;circle id="Knob1_1_" fill="url(#Knob1_2_)" stroke="#5491CF" cx="28.296" cy="62.499" r="0.584"/&gt;
&lt;/g&gt;
&lt;/svg&gt;
</y:Resource>
      <y:Resource id="3">&lt;?xml version="1.0" encoding="utf-8"?&gt;
&lt;!-- Generator: Adobe Illustrator 15.0.2, SVG Export Plug-In . SVG Version: 6.00 Build 0)  --&gt;
&lt;!DOCTYPE svg PUBLIC "-//W3C//DTD SVG 1.1//EN" "http://www.w3.org/Graphics/SVG/1.1/DTD/svg11.dtd"&gt;
&lt;svg version="1.1" id="Ebene_1" xmlns="http://www.w3.org/2000/svg" xmlns:xlink="http://www.w3.org/1999/xlink" x="0px" y="0px"
	 width="57px" height="65px" viewBox="0 0 57 65" enable-background="new 0 0 57 65" xml:space="preserve"&gt;
&lt;g&gt;
	
		&lt;linearGradient id="SVGID_1_" gradientUnits="userSpaceOnUse" x1="26.3398" y1="3115.7266" x2="27.5807" y2="3145.5239" gradientTransform="matrix(1 0 0 1 0.3203 -3091.7656)"&gt;
		&lt;stop  offset="0.2711" style="stop-color:#FFAB4F"/&gt;
		&lt;stop  offset="1" style="stop-color:#FFD28F"/&gt;
	&lt;/linearGradient&gt;
	&lt;path fill="url(#SVGID_1_)" stroke="#ED9135" stroke-miterlimit="10" d="M49.529,51.225c-4.396-4.396-10.951-5.884-12.063-6.109
		V37.8H19.278c0,0,0.038,6.903,0,6.868c0,0-6.874,0.997-12.308,6.432C1.378,56.691,0.5,62.77,0.5,62.77
		c0,1.938,1.575,3.492,3.523,3.492h48.51c1.947,0,3.521-1.558,3.521-3.492C56.055,62.768,54.211,55.906,49.529,51.225z"/&gt;
	&lt;path id="body_18_" fill="#ECECEC" stroke="#9B9B9B" stroke-miterlimit="10" d="M0.5,62.768c0,1.938,1.575,3.494,3.523,3.494h48.51
		c1.947,0,3.521-1.559,3.521-3.494c0,0-1.844-6.861-6.525-11.543c-4.815-4.813-11.244-6.146-11.244-6.146
		c-1.771,1.655-5.61,3.802-10.063,3.802c-4.453,0-8.292-2.146-10.063-3.802c0,0-5.755,0.586-11.189,6.021
		C1.378,56.689,0.5,62.768,0.5,62.768z"/&gt;
	
		&lt;radialGradient id="SVGID_2_" cx="22.6621" cy="21.707" r="17.7954" gradientTransform="matrix(1 0 0 -1 0.04 64.1543)" gradientUnits="userSpaceOnUse"&gt;
		&lt;stop  offset="0" style="stop-color:#FCB57A"/&gt;
		&lt;stop  offset="1" style="stop-color:#FF8C36"/&gt;
	&lt;/radialGradient&gt;
	&lt;path fill="url(#SVGID_2_)" stroke="#E55E03" d="M28.106,33.486c-8.112,0-12.688,4.313-12.688,10.438
		c0,7.422,12.688,10.438,12.688,10.438s14.688-3.016,14.688-10.438C42.793,38.75,36.215,33.486,28.106,33.486z M26.288,53.051
		c0,0-7.135-2.093-8.805-7.201c-0.222-0.682,0.147-1.156,0.795-1.521V37.8h20.188v6.663c0.235,0.352,1.109,0.737,1.229,1.387
		C40.445,49.917,26.288,53.051,26.288,53.051z"/&gt;
	
		&lt;radialGradient id="SVGID_3_" cx="15.2056" cy="831.1875" r="32.3071" gradientTransform="matrix(1 0 0 1 0.0801 -773.6914)" gradientUnits="userSpaceOnUse"&gt;
		&lt;stop  offset="0" style="stop-color:#FCB57A"/&gt;
		&lt;stop  offset="1" style="stop-color:#FF8C36"/&gt;
	&lt;/radialGradient&gt;
	&lt;path fill="url(#SVGID_3_)" stroke="#E55E03" d="M49.529,51.225c-2.239-2.24-5.041-3.724-7.396-4.67
		c-2.854,5.51-14.021,7.807-14.021,7.807s-10.472-2.483-12.387-8.514c-2.439,0.771-5.787,2.287-8.749,5.25
		c-5.592,5.592-6.47,11.67-6.47,11.67c0,1.938,1.575,3.492,3.523,3.492h48.51c1.946,0,3.521-1.558,3.521-3.492
		C56.055,62.768,54.211,55.906,49.529,51.225z"/&gt;
	
		&lt;radialGradient id="SVGID_4_" cx="17.0723" cy="18.4907" r="11.8931" gradientTransform="matrix(1 0 0 -1 0.04 64.1543)" gradientUnits="userSpaceOnUse"&gt;
		&lt;stop  offset="0" style="stop-color:#FCB57A"/&gt;
		&lt;stop  offset="1" style="stop-color:#FF8C36"/&gt;
	&lt;/radialGradient&gt;
	&lt;path fill="url(#SVGID_4_)" stroke="#E55E03" d="M13.404,44.173c1.15-1.81,2.039-3.832,3.332-5.397
		c-0.514,1.027-1.669,4.084-1.669,5.148c0,5.186,10.366,9.079,14.688,10.438c-3.472,1.627-9.134-1.498-11.334-2.359
		c-3.601-1.419-4.071-3.063-5.89-4.854C12.523,47.135,12.878,45,13.404,44.173z"/&gt;
	
		&lt;radialGradient id="SVGID_5_" cx="31.8184" cy="19.3525" r="14.63" gradientTransform="matrix(1 0 0 -1 0.04 64.1543)" gradientUnits="userSpaceOnUse"&gt;
		&lt;stop  offset="0" style="stop-color:#FCB57A"/&gt;
		&lt;stop  offset="1" style="stop-color:#FF8C36"/&gt;
	&lt;/radialGradient&gt;
	&lt;path fill="url(#SVGID_5_)" stroke="#E55E03" d="M45.777,43.924c-1.317-1.568-5.11-9.424-6.604-6.617
		c0.516,1.025,3.617,3.693,3.617,6.617c0,5.186-10.271,8.576-16.699,9.145c1.429,4.938,11.373,1.293,13.805-0.313
		c3.563-2.354,4.563-5.133,7.854-3.705C47.754,49.045,48.006,46.574,45.777,43.924z"/&gt;
	
		&lt;radialGradient id="SVGID_6_" cx="30.4893" cy="4.8721" r="5.2028" gradientTransform="matrix(1 0 0 -1 0.04 64.1543)" gradientUnits="userSpaceOnUse"&gt;
		&lt;stop  offset="0" style="stop-color:#FCB57A"/&gt;
		&lt;stop  offset="1" style="stop-color:#FF8C36"/&gt;
	&lt;/radialGradient&gt;
	&lt;path fill="url(#SVGID_6_)" stroke="#E55E03" d="M30.777,54.167c0.357,0.836-0.153,1.983-0.352,2.813
		c-0.256,1.084-0.072,2.104,0.102,3.186c0.164,1.02,0.156,2.107,0.25,3.167c0.082,0.916,0.482,1.849,0.357,2.75"/&gt;
	
		&lt;radialGradient id="SVGID_7_" cx="23.2871" cy="5.3008" r="5.5143" gradientTransform="matrix(1 0 0 -1 0.04 64.1543)" gradientUnits="userSpaceOnUse"&gt;
		&lt;stop  offset="0" style="stop-color:#FCB57A"/&gt;
		&lt;stop  offset="1" style="stop-color:#FF8C36"/&gt;
	&lt;/radialGradient&gt;
	&lt;path fill="url(#SVGID_7_)" stroke="#E55E03" d="M23.695,53.417c-0.508,0.584-0.476,2.209-0.398,3
		c0.116,1.183,0.456,2.099,0.333,3.333c-0.192,1.943,0.154,4.479-0.436,6.333"/&gt;
	
		&lt;radialGradient id="face_x5F_white_1_" cx="27.5835" cy="3117.4922" r="23.425" fx="23.0139" fy="3115.0024" gradientTransform="matrix(1 0 0 1 0.3203 -3091.7656)" gradientUnits="userSpaceOnUse"&gt;
		&lt;stop  offset="0" style="stop-color:#FFD28F"/&gt;
		&lt;stop  offset="1" style="stop-color:#FFAB4F"/&gt;
	&lt;/radialGradient&gt;
	&lt;path id="face_x5F_white_3_" fill="url(#face_x5F_white_1_)" stroke="#ED9135" stroke-miterlimit="10" d="M43.676,23.357
		c0.086,10.2-6.738,18.52-15.25,18.586c-8.5,0.068-15.464-8.146-15.55-18.344C12.794,13.4,19.618,5.079,28.123,5.012
		C36.627,4.945,43.59,13.158,43.676,23.357z"/&gt;
	
		&lt;linearGradient id="face_highlight_1_" gradientUnits="userSpaceOnUse" x1="6468.501" y1="-12291.5195" x2="6492.1304" y2="-12384.9688" gradientTransform="matrix(0.275 0 0 -0.2733 -1752.8849 -3351.7349)"&gt;
		&lt;stop  offset="0" style="stop-color:#FFFFFF;stop-opacity:0.24"/&gt;
		&lt;stop  offset="1" style="stop-color:#FFFFFF;stop-opacity:0.16"/&gt;
	&lt;/linearGradient&gt;
	&lt;path id="face_highlight_3_" fill="url(#face_highlight_1_)" d="M28.415,5.625c-6.035,0.047-10.747,4.493-12.787,10.386
		c-0.664,1.919-0.294,4.043,0.98,5.629c2.73,3.398,5.729,6.283,9.461,8.088c3.137,1.518,7.535,2.385,11.893,1.247
		c2.274-0.592,3.988-2.459,4.375-4.766c0.187-1.094,0.293-2.289,0.283-3.553C42.54,13.244,36.729,5.56,28.415,5.625z"/&gt;
	&lt;path id="Hair_Young_Black_1_" fill="#5C5C5C" stroke="#353535" stroke-linecap="round" stroke-linejoin="round" d="M20.278,13.25
		c3.417,4.333,9.333,6.917,9.333,6.917l-1.417-3.5c0,0,7.094,4.691,8.083,4.333c0.968-0.2-1.082-3.807-1.082-3.807
		s3.138,1.795,4.854,3.969c1.803,2.28,4.285,3.504,4.285,3.504S47.027,2.719,27.289,2.744C8.278,2.709,12.058,27.678,12.058,27.678
		L14.695,17c0,0,0.914,5.757,1.399,4.875C17.861,15.211,18.861,11.5,20.278,13.25z"/&gt;
&lt;/g&gt;
&lt;/svg&gt;
</y:Resource>
      <y:Resource id="4">&lt;?xml version="1.0" encoding="utf-8"?&gt;
&lt;!-- Generator: Adobe Illustrator 15.0.2, SVG Export Plug-In . SVG Version: 6.00 Build 0)  --&gt;
&lt;!DOCTYPE svg PUBLIC "-//W3C//DTD SVG 1.1//EN" "http://www.w3.org/Graphics/SVG/1.1/DTD/svg11.dtd"&gt;
&lt;svg version="1.1" id="Ebene_1" xmlns="http://www.w3.org/2000/svg" xmlns:xlink="http://www.w3.org/1999/xlink" x="0px" y="0px"
	 width="57px" height="66px" viewBox="0 0 57 66" enable-background="new 0 0 57 66" xml:space="preserve"&gt;
&lt;g&gt;
	
		&lt;linearGradient id="SVGID_1_" gradientUnits="userSpaceOnUse" x1="26.3799" y1="-2276.8809" x2="27.6209" y2="-2306.6792" gradientTransform="matrix(1 0 0 -1 0.2803 -2252.9199)"&gt;
		&lt;stop  offset="0.2711" style="stop-color:#FFAB4F"/&gt;
		&lt;stop  offset="1" style="stop-color:#FFD28F"/&gt;
	&lt;/linearGradient&gt;
	&lt;path fill="url(#SVGID_1_)" stroke="#ED9135" stroke-miterlimit="10" d="M49.529,51.225c-4.396-4.396-10.951-5.884-12.063-6.109
		V37.8H19.278c0,0,0.038,6.903,0,6.868c0,0-6.874,0.997-12.308,6.432C1.378,56.691,0.5,62.77,0.5,62.77
		c0,1.938,1.575,3.492,3.523,3.492h48.51c1.947,0,3.521-1.558,3.521-3.492C56.055,62.768,54.211,55.906,49.529,51.225z"/&gt;
	&lt;path id="body_13_" fill="#ECECEC" stroke="#9B9B9B" stroke-miterlimit="10" d="M0.5,62.768c0,1.938,1.575,3.494,3.523,3.494h48.51
		c1.947,0,3.521-1.559,3.521-3.494c0,0-1.844-6.861-6.525-11.543c-4.815-4.813-11.244-6.146-11.244-6.146
		c-1.771,1.655-5.61,3.802-10.063,3.802c-4.453,0-8.292-2.146-10.063-3.802c0,0-5.755,0.586-11.189,6.021
		C1.378,56.689,0.5,62.768,0.5,62.768z"/&gt;
	&lt;path fill="#2068A3" stroke="#2068A3" d="M28.106,33.487c-8.112,0-12.688,4.312-12.688,10.437c0,7.422,12.688,10.438,12.688,10.438
		s14.688-3.016,14.688-10.438C42.793,38.75,36.215,33.487,28.106,33.487z M26.288,53.051c0,0-7.135-2.093-8.805-7.201
		c-0.222-0.682,0.147-1.156,0.795-1.521V37.8h20.188v6.663c0.235,0.352,1.109,0.737,1.229,1.387
		C40.445,49.917,26.288,53.051,26.288,53.051z"/&gt;
	
		&lt;radialGradient id="SVGID_2_" cx="14.2417" cy="9.1006" r="53.247" gradientTransform="matrix(1 0 0 -1 0.04 65.1543)" gradientUnits="userSpaceOnUse"&gt;
		&lt;stop  offset="0" style="stop-color:#74AEEE"/&gt;
		&lt;stop  offset="1" style="stop-color:#2068A3"/&gt;
	&lt;/radialGradient&gt;
	&lt;path fill="url(#SVGID_2_)" stroke="#2068A3" stroke-miterlimit="10" d="M49.529,51.225c-2.239-2.24-5.041-3.724-7.396-4.67
		c-2.854,5.51-14.022,7.807-14.022,7.807s-10.472-2.484-12.387-8.514c-2.439,0.771-5.787,2.287-8.749,5.25
		c-5.592,5.592-6.47,11.67-6.47,11.67c0,1.938,1.575,3.492,3.523,3.492h48.51c1.947,0,3.521-1.558,3.521-3.492
		C56.055,62.768,54.211,55.906,49.529,51.225z"/&gt;
	&lt;path fill="#5491CF" stroke="#2068A3" d="M13.404,44.173c1.15-1.81,2.039-3.832,3.332-5.397c-0.514,1.027-1.669,4.084-1.669,5.148
		c0,5.186,10.366,9.079,14.688,10.438c-3.472,1.627-9.134-1.498-11.335-2.36c-3.601-1.419-4.071-3.063-5.89-4.854
		C12.523,47.135,12.878,45,13.404,44.173z"/&gt;
	&lt;path fill="#5491CF" stroke="#2068A3" d="M45.777,43.924c-1.317-1.568-5.11-9.424-6.604-6.617c0.516,1.025,3.617,3.693,3.617,6.617
		c0,5.186-10.27,8.576-16.698,9.145c1.429,4.938,11.372,1.293,13.804-0.313c3.563-2.354,4.563-5.133,7.854-3.705
		C47.754,49.045,48.006,46.574,45.777,43.924z"/&gt;
	&lt;path fill="none" stroke="#2068A3" stroke-linecap="round" d="M30.777,54.167c0.357,0.836-0.153,1.983-0.352,2.813
		c-0.256,1.084-0.072,2.104,0.102,3.186c0.164,1.02,0.156,2.107,0.25,3.167c0.082,0.916,0.482,1.849,0.357,2.75"/&gt;
	&lt;path fill="none" stroke="#2068A3" stroke-linecap="round" d="M23.695,53.417c-0.508,0.584-0.476,2.209-0.398,3
		c0.116,1.183,0.456,2.099,0.333,3.333c-0.192,1.943,0.154,4.479-0.436,6.333"/&gt;
	
		&lt;radialGradient id="face_x5F_white_1_" cx="27.623" cy="-2278.646" r="23.425" fx="23.0534" fy="-2281.1357" gradientTransform="matrix(1 0 0 -1 0.2803 -2252.9199)" gradientUnits="userSpaceOnUse"&gt;
		&lt;stop  offset="0" style="stop-color:#FFD28F"/&gt;
		&lt;stop  offset="1" style="stop-color:#FFAB4F"/&gt;
	&lt;/radialGradient&gt;
	&lt;path id="face_x5F_white_3_" fill="url(#face_x5F_white_1_)" stroke="#ED9135" stroke-miterlimit="10" d="M43.676,23.357
		c0.086,10.2-6.738,18.52-15.25,18.586c-8.5,0.068-15.464-8.146-15.55-18.344C12.794,13.4,19.618,5.079,28.123,5.012
		C36.627,4.945,43.59,13.158,43.676,23.357z"/&gt;
	
		&lt;linearGradient id="face_highlight_1_" gradientUnits="userSpaceOnUse" x1="5761.7578" y1="11330.6484" x2="5785.3872" y2="11424.0977" gradientTransform="matrix(0.275 0 0 0.2733 -1558.9874 -3088.4209)"&gt;
		&lt;stop  offset="0" style="stop-color:#FFFFFF;stop-opacity:0.24"/&gt;
		&lt;stop  offset="1" style="stop-color:#FFFFFF;stop-opacity:0.16"/&gt;
	&lt;/linearGradient&gt;
	&lt;path id="face_highlight_3_" fill="url(#face_highlight_1_)" d="M27.958,6.333c-6.035,0.047-10.747,4.493-12.787,10.386
		c-0.664,1.919-0.294,4.043,0.98,5.629c2.73,3.398,5.729,6.283,9.461,8.088c3.137,1.518,7.535,2.385,11.893,1.247
		c2.274-0.592,3.988-2.459,4.375-4.766c0.187-1.094,0.293-2.289,0.283-3.553C42.083,13.952,36.271,6.268,27.958,6.333z"/&gt;
	&lt;path id="Hair_Young_Brown_1_" fill="#CC9869" stroke="#99724F" stroke-linecap="round" stroke-linejoin="round" d="M20.278,13.25
		c3.417,4.333,9.333,6.917,9.333,6.917l-1.417-3.5c0,0,7.094,4.691,8.083,4.333c0.968-0.2-1.082-3.807-1.082-3.807
		s3.138,1.795,4.854,3.969c1.803,2.28,4.285,3.504,4.285,3.504S47.027,2.719,27.289,2.744C8.278,2.709,12.058,27.678,12.058,27.678
		L14.695,17c0,0,0.914,5.757,1.399,4.875C17.861,15.211,18.861,11.5,20.278,13.25z"/&gt;
	&lt;path fill="#4B4B4B" stroke="#4B4B4B" stroke-linecap="round" stroke-linejoin="round" stroke-miterlimit="10" d="M28.105,2
		C22.464,2,20.2,4.246,18.13,5.533C29.753,2.865,41.152,10.375,44.46,20.5C44.459,16.875,44.459,2,28.105,2z"/&gt;
	&lt;path fill="#9B9B9B" stroke="#4B4B4B" stroke-linecap="round" stroke-linejoin="round" stroke-miterlimit="10" d="M11.151,17.751
		C12.878,8.25,18.686,6.309,25.273,7.127C31.295,7.875,36.93,10.491,44.459,20.5C37.777,7.125,20.278-3.375,9.903,3.921
		C5.569,6.97,4.903,13.375,11.151,17.751z"/&gt;
&lt;/g&gt;
&lt;/svg&gt;
</y:Resource>
      <y:Resource id="5">&lt;?xml version="1.0" encoding="utf-8"?&gt;
&lt;!-- Generator: Adobe Illustrator 15.0.2, SVG Export Plug-In . SVG Version: 6.00 Build 0)  --&gt;
&lt;!DOCTYPE svg PUBLIC "-//W3C//DTD SVG 1.1//EN" "http://www.w3.org/Graphics/SVG/1.1/DTD/svg11.dtd"&gt;
&lt;svg version="1.1" id="Ebene_1" xmlns="http://www.w3.org/2000/svg" xmlns:xlink="http://www.w3.org/1999/xlink" x="0px" y="0px"
	 width="57px" height="65px" viewBox="0 0 57 65" enable-background="new 0 0 57 65" xml:space="preserve"&gt;
&lt;g&gt;
	
		&lt;linearGradient id="SVGID_1_" gradientUnits="userSpaceOnUse" x1="26.3398" y1="3115.7266" x2="27.5807" y2="3145.5239" gradientTransform="matrix(1 0 0 1 0.3203 -3091.7656)"&gt;
		&lt;stop  offset="0.2711" style="stop-color:#FFAB4F"/&gt;
		&lt;stop  offset="1" style="stop-color:#FFD28F"/&gt;
	&lt;/linearGradient&gt;
	&lt;path fill="url(#SVGID_1_)" stroke="#ED9135" stroke-miterlimit="10" d="M49.529,51.225c-4.396-4.396-10.951-5.884-12.063-6.109
		V37.8H19.278c0,0,0.038,6.903,0,6.868c0,0-6.874,0.997-12.308,6.432C1.378,56.691,0.5,62.77,0.5,62.77
		c0,1.938,1.575,3.492,3.523,3.492h48.51c1.947,0,3.521-1.558,3.521-3.492C56.055,62.768,54.211,55.906,49.529,51.225z"/&gt;
	
		&lt;radialGradient id="face_x5F_white_1_" cx="27.5835" cy="3117.4922" r="23.425" fx="23.0139" fy="3115.0024" gradientTransform="matrix(1 0 0 1 0.3203 -3091.7656)" gradientUnits="userSpaceOnUse"&gt;
		&lt;stop  offset="0" style="stop-color:#FFD28F"/&gt;
		&lt;stop  offset="1" style="stop-color:#FFAB4F"/&gt;
	&lt;/radialGradient&gt;
	&lt;path id="face_x5F_white_3_" fill="url(#face_x5F_white_1_)" stroke="#ED9135" stroke-miterlimit="10" d="M43.676,23.357
		c0.086,10.2-6.738,18.52-15.25,18.586c-8.5,0.068-15.464-8.146-15.55-18.344C12.794,13.4,19.618,5.079,28.123,5.012
		C36.627,4.945,43.59,13.158,43.676,23.357z"/&gt;
	
		&lt;linearGradient id="face_highlight_1_" gradientUnits="userSpaceOnUse" x1="6468.501" y1="-12291.5195" x2="6492.1304" y2="-12384.9688" gradientTransform="matrix(0.275 0 0 -0.2733 -1752.8849 -3351.7349)"&gt;
		&lt;stop  offset="0" style="stop-color:#FFFFFF;stop-opacity:0.24"/&gt;
		&lt;stop  offset="1" style="stop-color:#FFFFFF;stop-opacity:0.16"/&gt;
	&lt;/linearGradient&gt;
	&lt;path id="face_highlight_3_" fill="url(#face_highlight_1_)" d="M28.415,5.625c-6.035,0.047-10.747,4.493-12.787,10.386
		c-0.664,1.919-0.294,4.043,0.98,5.629c2.73,3.398,5.729,6.283,9.461,8.088c3.137,1.518,7.535,2.385,11.893,1.247
		c2.274-0.592,3.988-2.459,4.375-4.766c0.187-1.094,0.293-2.289,0.283-3.553C42.54,13.244,36.729,5.56,28.415,5.625z"/&gt;
	&lt;path id="Hair_Young_Brown_1_" fill="#CC9869" stroke="#99724F" stroke-linecap="round" stroke-linejoin="round" d="M20.278,13.25
		c3.417,4.333,9.333,6.917,9.333,6.917l-1.417-3.5c0,0,7.094,4.691,8.083,4.333c0.968-0.2-1.082-3.807-1.082-3.807
		s3.138,1.795,4.854,3.969c1.803,2.28,4.285,3.504,4.285,3.504S47.027,2.719,27.289,2.744C8.278,2.709,12.058,27.678,12.058,27.678
		L14.695,17c0,0,0.914,5.757,1.399,4.875C17.861,15.211,18.861,11.5,20.278,13.25z"/&gt;
	&lt;path id="Hair_Young_Blond_1_" fill="#FAE1AA" stroke="#E2B354" stroke-linecap="round" stroke-linejoin="round" d="M20.278,13.25
		c3.417,4.333,9.333,6.917,9.333,6.917l-1.417-3.5c0,0,7.094,4.691,8.083,4.333c0.968-0.2-1.082-3.807-1.082-3.807
		s3.138,1.795,4.854,3.969c1.803,2.28,4.285,3.504,4.285,3.504S47.027,2.719,27.289,2.744C8.278,2.709,12.058,27.678,12.058,27.678
		L14.695,17c0,0,0.914,5.757,1.399,4.875C17.861,15.211,18.861,11.5,20.278,13.25z"/&gt;
	
		&lt;radialGradient id="collar_x5F_body_1_" cx="14.9609" cy="3148.9336" r="32.4004" gradientTransform="matrix(1 0 0 1 0.3203 -3091.7656)" gradientUnits="userSpaceOnUse"&gt;
		&lt;stop  offset="0" style="stop-color:#B0E8FF"/&gt;
		&lt;stop  offset="1" style="stop-color:#74AEEE"/&gt;
	&lt;/radialGradient&gt;
	&lt;path id="collar_x5F_body_3_" fill="url(#collar_x5F_body_1_)" stroke="#5491CF" d="M0.5,62.768c0,1.938,1.575,3.494,3.523,3.494
		h48.51c1.947,0,3.521-1.559,3.521-3.494c0,0-1.844-6.861-6.525-11.543c-4.815-4.813-11.244-6.146-11.244-6.146
		c-1.771,1.655-5.61,2.802-10.063,2.802c-4.453,0-8.292-1.146-10.063-2.802c0,0-5.755,0.586-11.189,6.021
		C1.378,56.689,0.5,62.768,0.5,62.768z"/&gt;
	
		&lt;radialGradient id="collar_x5F_r_1_" cx="31.2998" cy="3139.0605" r="9.2823" gradientTransform="matrix(1 0 0 1 0.3203 -3091.7656)" gradientUnits="userSpaceOnUse"&gt;
		&lt;stop  offset="0" style="stop-color:#80CCFF"/&gt;
		&lt;stop  offset="1" style="stop-color:#74AEEE"/&gt;
	&lt;/radialGradient&gt;
	&lt;path id="collar_x5F_r_3_" fill="url(#collar_x5F_r_1_)" stroke="#5491CF" d="M38.159,41.381c0,0-0.574,2.369-3.013,4.441
		c-2.108,1.795-5.783,2.072-5.783,2.072l3.974,6.217c0,0,2.957-1.637,5.009-3.848c1.922-2.072,1.37-5.479,1.37-5.479L38.159,41.381z
		"/&gt;
	
		&lt;radialGradient id="collar_x5F_l_1_" cx="18.9375" cy="3139.1016" r="9.2843" gradientTransform="matrix(1 0 0 1 0.3203 -3091.7656)" gradientUnits="userSpaceOnUse"&gt;
		&lt;stop  offset="0" style="stop-color:#80CCFF"/&gt;
		&lt;stop  offset="1" style="stop-color:#74AEEE"/&gt;
	&lt;/radialGradient&gt;
	&lt;path id="collar_x5F_l_3_" fill="url(#collar_x5F_l_1_)" stroke="#5491CF" d="M18.63,41.422c0,0,0.576,2.369,3.012,4.441
		c2.109,1.793,5.785,2.072,5.785,2.072l-3.974,6.217c0,0-2.957-1.637-5.007-3.85c-1.922-2.072-1.37-5.48-1.37-5.48L18.63,41.422z"/&gt;
	
		&lt;radialGradient id="Knob2_1_" cx="27.6895" cy="2375.2871" r="0.9669" gradientTransform="matrix(1 0 0 1 0.2402 -2319.0742)" gradientUnits="userSpaceOnUse"&gt;
		&lt;stop  offset="0" style="stop-color:#80CCFF"/&gt;
		&lt;stop  offset="1" style="stop-color:#74AEEE"/&gt;
	&lt;/radialGradient&gt;
	&lt;circle id="Knob2_3_" fill="url(#Knob2_1_)" stroke="#5491CF" cx="28.258" cy="56.254" r="0.584"/&gt;
	
		&lt;radialGradient id="Knob1_1_" cx="27.7275" cy="2381.5283" r="0.9669" gradientTransform="matrix(1 0 0 1 0.2402 -2319.0742)" gradientUnits="userSpaceOnUse"&gt;
		&lt;stop  offset="0" style="stop-color:#80CCFF"/&gt;
		&lt;stop  offset="1" style="stop-color:#74AEEE"/&gt;
	&lt;/radialGradient&gt;
	&lt;circle id="Knob1_3_" fill="url(#Knob1_1_)" stroke="#5491CF" cx="28.297" cy="62.499" r="0.584"/&gt;
	
		&lt;radialGradient id="collar_x5F_body_4_" cx="15.2412" cy="9.9829" r="32.4004" gradientTransform="matrix(1 0 0 -1 0.04 64.1543)" gradientUnits="userSpaceOnUse"&gt;
		&lt;stop  offset="0" style="stop-color:#FCB57A"/&gt;
		&lt;stop  offset="1" style="stop-color:#FF8C36"/&gt;
	&lt;/radialGradient&gt;
	&lt;path id="collar_x5F_body_2_" fill="url(#collar_x5F_body_4_)" stroke="#E55E03" d="M0.5,62.768c0,1.938,1.575,3.494,3.523,3.494
		h48.51c1.947,0,3.521-1.559,3.521-3.494c0,0-1.844-6.861-6.525-11.543c-4.815-4.813-11.244-6.146-11.244-6.146
		c-1.771,1.655-5.61,2.802-10.063,2.802c-4.453,0-8.292-1.146-10.063-2.802c0,0-5.755,0.586-11.189,6.021
		C1.378,56.689,0.5,62.768,0.5,62.768z"/&gt;
	
		&lt;radialGradient id="collar_x5F_r_4_" cx="31.5801" cy="15.957" r="9.2823" gradientTransform="matrix(1 0 0 -1 0.04 64.1543)" gradientUnits="userSpaceOnUse"&gt;
		&lt;stop  offset="0" style="stop-color:#FCB57A"/&gt;
		&lt;stop  offset="1" style="stop-color:#FF8C36"/&gt;
	&lt;/radialGradient&gt;
	&lt;path id="collar_x5F_r_2_" fill="url(#collar_x5F_r_4_)" stroke="#E55E03" d="M38.159,41.381c0,0-0.574,2.369-3.013,4.441
		c-2.108,1.795-5.783,2.072-5.783,2.072l3.974,6.217c0,0,2.957-1.637,5.009-3.848c1.922-2.072,1.37-5.479,1.37-5.479L38.159,41.381z
		"/&gt;
	
		&lt;radialGradient id="collar_x5F_l_4_" cx="19.2178" cy="15.916" r="9.2843" gradientTransform="matrix(1 0 0 -1 0.04 64.1543)" gradientUnits="userSpaceOnUse"&gt;
		&lt;stop  offset="0" style="stop-color:#FCB57A"/&gt;
		&lt;stop  offset="1" style="stop-color:#FF8C36"/&gt;
	&lt;/radialGradient&gt;
	&lt;path id="collar_x5F_l_2_" fill="url(#collar_x5F_l_4_)" stroke="#E55E03" d="M18.63,41.422c0,0,0.576,2.369,3.012,4.441
		c2.109,1.793,5.785,2.072,5.785,2.072l-3.974,6.217c0,0-2.957-1.637-5.007-3.85c-1.922-2.072-1.37-5.48-1.37-5.48L18.63,41.422z"/&gt;
	
		&lt;radialGradient id="path5135_1_" cx="26.6587" cy="3.0273" r="6.7617" gradientTransform="matrix(1 0 0 -1 0.04 64.1543)" gradientUnits="userSpaceOnUse"&gt;
		&lt;stop  offset="0" style="stop-color:#80CCFF"/&gt;
		&lt;stop  offset="1" style="stop-color:#74AEEE"/&gt;
	&lt;/radialGradient&gt;
	&lt;path id="path5135_3_" fill="url(#path5135_1_)" stroke="#5491CF" d="M27.427,55.221c0,0-1.848,2.057-2.079,6.543
		c-0.231,4.488,0,4.488,0,4.488h6.544c0,0,0.23,0.063-0.152-4.363c-0.399-4.604-2.389-6.668-2.389-6.668H27.427z"/&gt;
	
		&lt;radialGradient id="path5131_1_" cx="26.7456" cy="11.9678" r="4.8472" gradientTransform="matrix(1 0 0 -1 0.04 64.1543)" gradientUnits="userSpaceOnUse"&gt;
		&lt;stop  offset="0" style="stop-color:#80CCFF"/&gt;
		&lt;stop  offset="1" style="stop-color:#74AEEE"/&gt;
	&lt;/radialGradient&gt;
	&lt;path id="path5131_3_" fill="url(#path5131_1_)" stroke="#5491CF" d="M28.313,48.68h0.122l2.551,4.002
		c0.517,0.953-1.204,1.797-1.453,2.549l-2.279-0.016c-0.243-0.76-2.257-1.365-1.476-2.584L28.313,48.68z"/&gt;
&lt;/g&gt;
&lt;/svg&gt;
</y:Resource>
      <y:Resource id="6">&lt;?xml version="1.0" encoding="utf-8"?&gt;
&lt;!-- Generator: Adobe Illustrator 15.0.2, SVG Export Plug-In . SVG Version: 6.00 Build 0)  --&gt;
&lt;!DOCTYPE svg PUBLIC "-//W3C//DTD SVG 1.1//EN" "http://www.w3.org/Graphics/SVG/1.1/DTD/svg11.dtd"&gt;
&lt;svg version="1.1" id="Ebene_1" xmlns="http://www.w3.org/2000/svg" xmlns:xlink="http://www.w3.org/1999/xlink" x="0px" y="0px"
	 width="57px" height="65px" viewBox="0 0 57 65" enable-background="new 0 0 57 65" xml:space="preserve"&gt;
&lt;g&gt;
	&lt;polygon fill="#FAE1AA" stroke="#F9C969" stroke-linecap="round" stroke-linejoin="round" points="44.365,49.031 13.101,53.422 
		12.191,30.465 43.408,31.092 	"/&gt;
	
		&lt;linearGradient id="SVGID_1_" gradientUnits="userSpaceOnUse" x1="26.3398" y1="3115.7266" x2="27.5807" y2="3145.5239" gradientTransform="matrix(1 0 0 1 0.3203 -3091.7656)"&gt;
		&lt;stop  offset="0.2711" style="stop-color:#FFAB4F"/&gt;
		&lt;stop  offset="1" style="stop-color:#FFD28F"/&gt;
	&lt;/linearGradient&gt;
	&lt;path fill="url(#SVGID_1_)" stroke="#ED9135" stroke-miterlimit="10" d="M49.529,51.225c-4.396-4.396-10.951-5.884-12.063-6.109
		V37.8H19.278c0,0,0.038,6.903,0,6.868c0,0-6.874,0.997-12.308,6.432C1.378,56.691,0.5,62.77,0.5,62.77
		c0,1.938,1.575,3.492,3.523,3.492h48.51c1.947,0,3.521-1.558,3.521-3.492C56.055,62.768,54.211,55.906,49.529,51.225z"/&gt;
	
		&lt;radialGradient id="face_x5F_white_1_" cx="27.5835" cy="3117.4922" r="23.425" fx="23.0139" fy="3115.0024" gradientTransform="matrix(1 0 0 1 0.3203 -3091.7656)" gradientUnits="userSpaceOnUse"&gt;
		&lt;stop  offset="0" style="stop-color:#FFD28F"/&gt;
		&lt;stop  offset="1" style="stop-color:#FFAB4F"/&gt;
	&lt;/radialGradient&gt;
	&lt;path id="face_x5F_white_3_" fill="url(#face_x5F_white_1_)" stroke="#ED9135" stroke-miterlimit="10" d="M43.676,23.357
		c0.086,10.2-6.738,18.52-15.25,18.586c-8.5,0.068-15.464-8.146-15.55-18.344C12.794,13.4,19.618,5.079,28.123,5.012
		C36.627,4.945,43.59,13.158,43.676,23.357z"/&gt;
	
		&lt;linearGradient id="face_highlight_1_" gradientUnits="userSpaceOnUse" x1="6468.501" y1="-12291.5195" x2="6492.1304" y2="-12384.9688" gradientTransform="matrix(0.275 0 0 -0.2733 -1752.8849 -3351.7349)"&gt;
		&lt;stop  offset="0" style="stop-color:#FFFFFF;stop-opacity:0.24"/&gt;
		&lt;stop  offset="1" style="stop-color:#FFFFFF;stop-opacity:0.16"/&gt;
	&lt;/linearGradient&gt;
	&lt;path id="face_highlight_3_" fill="url(#face_highlight_1_)" d="M28.415,5.625c-6.035,0.047-10.747,4.493-12.787,10.386
		c-0.664,1.919-0.294,4.043,0.98,5.629c2.73,3.398,5.729,6.283,9.461,8.088c3.137,1.518,7.535,2.385,11.893,1.247
		c2.274-0.592,3.988-2.459,4.375-4.766c0.187-1.094,0.293-2.289,0.283-3.553C42.54,13.244,36.729,5.56,28.415,5.625z"/&gt;
	&lt;path fill="#FAE1AA" stroke="#E2B354" stroke-linecap="round" stroke-linejoin="round" d="M17.754,45.004
		c-0.413-3.02-0.771-6.182-0.946-9.033c-0.574-9.349,2.886-17.721,2.886-17.721l0.882-2.078l0.94,2.419l1.872-4.956l-0.049,4.553
		l1.311-0.749l0.701-1.653L25.715,18l1.055-0.988l2.13-0.729L29.84,17l0.479-2.375l0.834,2.554l1.125-1.024l1.68-0.214l1.07,1.372
		l-0.243-4.246l1.883,3.967L37.611,17c0,0,5.595,10.622,3.313,29.1c2.154,0.76,4.916,2.016,7.316,3.976
		c0.001-0.001,0.011-0.013,0.011-0.013L44.111,19.38C43.079,12.873,38.752,2.599,28.73,2.648
		C5.153,2.568,13.025,42.055,8.945,49.334c-0.007,0.014-0.012,0.025-0.02,0.039C12.292,46.729,15.809,45.516,17.754,45.004z"/&gt;
	
		&lt;radialGradient id="collar_x5F_body_1_" cx="15.2412" cy="9.9829" r="32.4004" gradientTransform="matrix(1 0 0 -1 0.04 64.1543)" gradientUnits="userSpaceOnUse"&gt;
		&lt;stop  offset="0" style="stop-color:#FCB57A"/&gt;
		&lt;stop  offset="1" style="stop-color:#FF8C36"/&gt;
	&lt;/radialGradient&gt;
	&lt;path id="collar_x5F_body_2_" fill="url(#collar_x5F_body_1_)" stroke="#E55E03" d="M0.5,62.768c0,1.938,1.575,3.494,3.523,3.494
		h48.51c1.947,0,3.521-1.559,3.521-3.494c0,0-1.844-6.861-6.525-11.543c-4.815-4.813-11.244-6.146-11.244-6.146
		c-1.771,1.655-5.61,2.802-10.063,2.802c-4.453,0-8.292-1.146-10.063-2.802c0,0-5.755,0.586-11.189,6.021
		C1.378,56.689,0.5,62.768,0.5,62.768z"/&gt;
	
		&lt;radialGradient id="collar_x5F_r_1_" cx="31.5801" cy="15.957" r="9.2823" gradientTransform="matrix(1 0 0 -1 0.04 64.1543)" gradientUnits="userSpaceOnUse"&gt;
		&lt;stop  offset="0" style="stop-color:#FCB57A"/&gt;
		&lt;stop  offset="1" style="stop-color:#FF8C36"/&gt;
	&lt;/radialGradient&gt;
	&lt;path id="collar_x5F_r_2_" fill="url(#collar_x5F_r_1_)" stroke="#E55E03" d="M38.159,41.381c0,0-0.574,2.369-3.013,4.441
		c-2.108,1.795-5.783,2.072-5.783,2.072l3.974,6.217c0,0,2.957-1.637,5.009-3.848c1.922-2.072,1.37-5.479,1.37-5.479L38.159,41.381z
		"/&gt;
	
		&lt;radialGradient id="collar_x5F_l_1_" cx="19.2178" cy="15.916" r="9.2843" gradientTransform="matrix(1 0 0 -1 0.04 64.1543)" gradientUnits="userSpaceOnUse"&gt;
		&lt;stop  offset="0" style="stop-color:#FCB57A"/&gt;
		&lt;stop  offset="1" style="stop-color:#FF8C36"/&gt;
	&lt;/radialGradient&gt;
	&lt;path id="collar_x5F_l_2_" fill="url(#collar_x5F_l_1_)" stroke="#E55E03" d="M18.63,41.422c0,0,0.576,2.369,3.012,4.441
		c2.109,1.793,5.785,2.072,5.785,2.072l-3.974,6.217c0,0-2.957-1.637-5.007-3.85c-1.922-2.072-1.37-5.48-1.37-5.48L18.63,41.422z"/&gt;
	&lt;circle id="Knob2_2_" fill="#E55E03" stroke="#E55E03" cx="28.258" cy="56.254" r="0.584"/&gt;
	&lt;circle id="Knob1_2_" fill="#E55E03" stroke="#E55E03" cx="28.297" cy="62.499" r="0.584"/&gt;
&lt;/g&gt;
&lt;/svg&gt;
</y:Resource>
      <y:Resource id="7">&lt;?xml version="1.0" encoding="utf-8"?&gt;
&lt;!-- Generator: Adobe Illustrator 15.0.2, SVG Export Plug-In . SVG Version: 6.00 Build 0)  --&gt;
&lt;!DOCTYPE svg PUBLIC "-//W3C//DTD SVG 1.1//EN" "http://www.w3.org/Graphics/SVG/1.1/DTD/svg11.dtd"&gt;
&lt;svg version="1.1" id="Ebene_1" xmlns="http://www.w3.org/2000/svg" xmlns:xlink="http://www.w3.org/1999/xlink" x="0px" y="0px"
	 width="57px" height="65px" viewBox="0 0 57 65" enable-background="new 0 0 57 65" xml:space="preserve"&gt;
&lt;g&gt;
	
		&lt;linearGradient id="SVGID_1_" gradientUnits="userSpaceOnUse" x1="26.3398" y1="3115.7266" x2="27.5807" y2="3145.5239" gradientTransform="matrix(1 0 0 1 0.3203 -3091.7656)"&gt;
		&lt;stop  offset="0.2711" style="stop-color:#FFAB4F"/&gt;
		&lt;stop  offset="1" style="stop-color:#FFD28F"/&gt;
	&lt;/linearGradient&gt;
	&lt;path fill="url(#SVGID_1_)" stroke="#ED9135" stroke-miterlimit="10" d="M49.529,51.225c-4.396-4.396-10.951-5.884-12.063-6.109
		V37.8H19.278c0,0,0.038,6.903,0,6.868c0,0-6.874,0.997-12.308,6.432C1.378,56.691,0.5,62.77,0.5,62.77
		c0,1.938,1.575,3.492,3.523,3.492h48.51c1.947,0,3.521-1.558,3.521-3.492C56.055,62.768,54.211,55.906,49.529,51.225z"/&gt;
	
		&lt;radialGradient id="face_x5F_white_1_" cx="27.5835" cy="3117.4922" r="23.425" fx="23.0139" fy="3115.0024" gradientTransform="matrix(1 0 0 1 0.3203 -3091.7656)" gradientUnits="userSpaceOnUse"&gt;
		&lt;stop  offset="0" style="stop-color:#FFD28F"/&gt;
		&lt;stop  offset="1" style="stop-color:#FFAB4F"/&gt;
	&lt;/radialGradient&gt;
	&lt;path id="face_x5F_white_3_" fill="url(#face_x5F_white_1_)" stroke="#ED9135" stroke-miterlimit="10" d="M43.676,23.357
		c0.086,10.2-6.738,18.52-15.25,18.586c-8.5,0.068-15.464-8.146-15.55-18.344C12.794,13.4,19.618,5.079,28.123,5.012
		C36.627,4.945,43.59,13.158,43.676,23.357z"/&gt;
	
		&lt;linearGradient id="face_highlight_1_" gradientUnits="userSpaceOnUse" x1="6468.501" y1="-12291.5195" x2="6492.1304" y2="-12384.9688" gradientTransform="matrix(0.275 0 0 -0.2733 -1752.8849 -3351.7349)"&gt;
		&lt;stop  offset="0" style="stop-color:#FFFFFF;stop-opacity:0.24"/&gt;
		&lt;stop  offset="1" style="stop-color:#FFFFFF;stop-opacity:0.16"/&gt;
	&lt;/linearGradient&gt;
	&lt;path id="face_highlight_3_" fill="url(#face_highlight_1_)" d="M28.415,5.625c-6.035,0.047-10.747,4.493-12.787,10.386
		c-0.664,1.919-0.294,4.043,0.98,5.629c2.73,3.398,5.729,6.283,9.461,8.088c3.137,1.518,7.535,2.385,11.893,1.247
		c2.274-0.592,3.988-2.459,4.375-4.766c0.187-1.094,0.293-2.289,0.283-3.553C42.54,13.244,36.729,5.56,28.415,5.625z"/&gt;
	&lt;path fill="#D0D0D0" stroke="#9B9B9B" stroke-width="0.9271" stroke-linecap="round" stroke-linejoin="round" d="M28.02,31.921
		c-6.78,0-6.717,3.708-6.717,3.708c0,8.133,2.985,8.788,6.955,8.788c4.243,0,6.792-0.926,6.792-8.595
		C35.051,35.822,35.881,31.921,28.02,31.921z M23.989,35.678c0-0.556,1.838-1.005,4.107-1.005c2.27,0,4.107,0.449,4.107,1.005
		C32.204,36.232,23.989,36.232,23.989,35.678z"/&gt;
	&lt;path id="hair_x5F_gray_3_" fill="#ECECEC" stroke="#9B9B9B" stroke-linecap="round" stroke-linejoin="round" d="M20.278,13.25
		c0,0,5.321,7.25,15,3.75c2.729-0.563,9.058,1.035,9.058,1.035S40.68,1.865,27.289,2.744C9.403,4.125,12.058,25.678,12.058,25.678
		s2.768-0.684,5.036-4.802C18.068,19.106,20.278,13.25,20.278,13.25z"/&gt;
	
		&lt;radialGradient id="collar_x5F_body_1_" cx="14.9609" cy="3148.9336" r="32.4004" gradientTransform="matrix(1 0 0 1 0.3203 -3091.7656)" gradientUnits="userSpaceOnUse"&gt;
		&lt;stop  offset="0" style="stop-color:#B0E8FF"/&gt;
		&lt;stop  offset="1" style="stop-color:#74AEEE"/&gt;
	&lt;/radialGradient&gt;
	&lt;path id="collar_x5F_body_3_" fill="url(#collar_x5F_body_1_)" stroke="#5491CF" d="M0.5,62.768c0,1.938,1.575,3.494,3.523,3.494
		h48.51c1.947,0,3.521-1.559,3.521-3.494c0,0-1.844-6.861-6.525-11.543c-4.815-4.813-11.244-6.146-11.244-6.146
		c-1.771,1.655-5.61,2.802-10.063,2.802c-4.453,0-8.292-1.146-10.063-2.802c0,0-5.755,0.586-11.189,6.021
		C1.378,56.689,0.5,62.768,0.5,62.768z"/&gt;
	
		&lt;radialGradient id="collar_x5F_r_1_" cx="31.2998" cy="3139.0605" r="9.2823" gradientTransform="matrix(1 0 0 1 0.3203 -3091.7656)" gradientUnits="userSpaceOnUse"&gt;
		&lt;stop  offset="0" style="stop-color:#80CCFF"/&gt;
		&lt;stop  offset="1" style="stop-color:#74AEEE"/&gt;
	&lt;/radialGradient&gt;
	&lt;path id="collar_x5F_r_3_" fill="url(#collar_x5F_r_1_)" stroke="#5491CF" d="M38.159,41.381c0,0-0.574,2.369-3.013,4.441
		c-2.108,1.795-5.783,2.072-5.783,2.072l3.974,6.217c0,0,2.957-1.637,5.009-3.848c1.922-2.072,1.37-5.479,1.37-5.479L38.159,41.381z
		"/&gt;
	
		&lt;radialGradient id="collar_x5F_l_1_" cx="18.9375" cy="3139.1016" r="9.2843" gradientTransform="matrix(1 0 0 1 0.3203 -3091.7656)" gradientUnits="userSpaceOnUse"&gt;
		&lt;stop  offset="0" style="stop-color:#80CCFF"/&gt;
		&lt;stop  offset="1" style="stop-color:#74AEEE"/&gt;
	&lt;/radialGradient&gt;
	&lt;path id="collar_x5F_l_3_" fill="url(#collar_x5F_l_1_)" stroke="#5491CF" d="M18.63,41.422c0,0,0.576,2.369,3.012,4.441
		c2.109,1.793,5.785,2.072,5.785,2.072l-3.974,6.217c0,0-2.957-1.637-5.007-3.85c-1.922-2.072-1.37-5.48-1.37-5.48L18.63,41.422z"/&gt;
	
		&lt;radialGradient id="Knob2_1_" cx="27.6895" cy="2375.2871" r="0.9669" gradientTransform="matrix(1 0 0 1 0.2402 -2319.0742)" gradientUnits="userSpaceOnUse"&gt;
		&lt;stop  offset="0" style="stop-color:#80CCFF"/&gt;
		&lt;stop  offset="1" style="stop-color:#74AEEE"/&gt;
	&lt;/radialGradient&gt;
	&lt;circle id="Knob2_3_" fill="url(#Knob2_1_)" stroke="#5491CF" cx="28.258" cy="56.254" r="0.584"/&gt;
	
		&lt;radialGradient id="Knob1_1_" cx="27.7275" cy="2381.5283" r="0.9669" gradientTransform="matrix(1 0 0 1 0.2402 -2319.0742)" gradientUnits="userSpaceOnUse"&gt;
		&lt;stop  offset="0" style="stop-color:#80CCFF"/&gt;
		&lt;stop  offset="1" style="stop-color:#74AEEE"/&gt;
	&lt;/radialGradient&gt;
	&lt;circle id="Knob1_3_" fill="url(#Knob1_1_)" stroke="#5491CF" cx="28.297" cy="62.499" r="0.584"/&gt;
	
		&lt;radialGradient id="jacket_x5F_body_2_" cx="13.2065" cy="3148.0576" r="40.9197" gradientTransform="matrix(1 0 0 1 0.3203 -3091.7656)" gradientUnits="userSpaceOnUse"&gt;
		&lt;stop  offset="0" style="stop-color:#D0D0D0"/&gt;
		&lt;stop  offset="1" style="stop-color:#9B9B9B"/&gt;
	&lt;/radialGradient&gt;
	
		&lt;path id="jacket_x5F_body_1_" fill="url(#jacket_x5F_body_2_)" stroke="#4B4B4B" stroke-linecap="round" stroke-linejoin="round" d="
		M49.529,51.225c-4.434-4.434-10.223-5.91-11.112-6.117l-5.39,21.146h-8.858L18.927,45.68c-0.286-0.191-0.543-0.393-0.767-0.602
		c0,0-5.755,0.586-11.189,6.02c-5.592,5.592-6.47,11.67-6.47,11.67c0,1.938,1.575,3.494,3.523,3.494h48.51
		c1.948,0,3.521-1.559,3.521-3.494C56.055,62.768,54.211,55.906,49.529,51.225z"/&gt;
	&lt;polygon id="jacket_x5F_r_1_" fill="#9B9B9B" stroke="#4B4B4B" stroke-linecap="round" stroke-linejoin="round" points="
		38.932,42.076 42.168,46.374 40.788,55.67 37.385,56.5 38.652,59.125 34.576,66.252 33.027,66.252 	"/&gt;
	&lt;polygon id="jacket_x5F_l_1_" fill="#B2B2B2" stroke="#4B4B4B" stroke-linecap="round" stroke-linejoin="round" points="
		18.263,42.076 15.028,46.374 16.409,55.67 19.811,56.5 18.544,59.125 22.621,66.252 24.169,66.252 	"/&gt;
	
		&lt;radialGradient id="path5135_1_" cx="26.9917" cy="4.1973" r="6.0918" gradientTransform="matrix(1 0 0 -1 0.04 64.1543)" gradientUnits="userSpaceOnUse"&gt;
		&lt;stop  offset="0" style="stop-color:#FCB57A"/&gt;
		&lt;stop  offset="1" style="stop-color:#FF8C36"/&gt;
	&lt;/radialGradient&gt;
	&lt;path id="path5135_2_" fill="url(#path5135_1_)" stroke="#E55E03" d="M27.427,55.221c0,0-1.848,2.057-2.079,6.543
		c-0.231,4.488,0,4.488,0,4.488h6.544c0,0,0.23,0.063-0.152-4.363c-0.399-4.604-2.389-6.668-2.389-6.668H27.427z"/&gt;
	
		&lt;radialGradient id="path5131_1_" cx="26.7456" cy="11.9678" r="4.8472" gradientTransform="matrix(1 0 0 -1 0.04 64.1543)" gradientUnits="userSpaceOnUse"&gt;
		&lt;stop  offset="0" style="stop-color:#FCB57A"/&gt;
		&lt;stop  offset="1" style="stop-color:#FF8C36"/&gt;
	&lt;/radialGradient&gt;
	&lt;path id="path5131_2_" fill="url(#path5131_1_)" stroke="#E55E03" d="M28.313,48.68h0.122l2.551,4.002
		c0.517,0.953-1.204,1.797-1.453,2.549l-2.279-0.016c-0.243-0.76-2.257-1.365-1.476-2.584L28.313,48.68z"/&gt;
&lt;/g&gt;
&lt;/svg&gt;
</y:Resource>
      <y:Resource id="8">&lt;?xml version="1.0" encoding="utf-8"?&gt;
&lt;!-- Generator: Adobe Illustrator 15.0.2, SVG Export Plug-In . SVG Version: 6.00 Build 0)  --&gt;
&lt;!DOCTYPE svg PUBLIC "-//W3C//DTD SVG 1.1//EN" "http://www.w3.org/Graphics/SVG/1.1/DTD/svg11.dtd"&gt;
&lt;svg version="1.1" id="Ebene_1" xmlns="http://www.w3.org/2000/svg" xmlns:xlink="http://www.w3.org/1999/xlink" x="0px" y="0px"
	 width="57px" height="63px" viewBox="0 0 57 63" enable-background="new 0 0 57 63" xml:space="preserve"&gt;
&lt;g&gt;
	
		&lt;linearGradient id="SVGID_1_" gradientUnits="userSpaceOnUse" x1="26.5" y1="1570.3457" x2="27.741" y2="1600.1431" gradientTransform="matrix(1 0 0 1 0.1602 -1546.3828)"&gt;
		&lt;stop  offset="0.2711" style="stop-color:#FFAB4F"/&gt;
		&lt;stop  offset="1" style="stop-color:#FFD28F"/&gt;
	&lt;/linearGradient&gt;
	&lt;path fill="url(#SVGID_1_)" stroke="#ED9135" stroke-miterlimit="10" d="M49.529,51.225c-4.396-4.396-10.951-5.884-12.063-6.109
		V37.8H19.278c0,0,0.038,6.903,0,6.868c0,0-6.874,0.997-12.308,6.432C1.378,56.691,0.5,62.77,0.5,62.77
		c0,1.938,1.575,3.492,3.523,3.492h48.51c1.947,0,3.521-1.558,3.521-3.492C56.055,62.768,54.211,55.906,49.529,51.225z"/&gt;
	
		&lt;radialGradient id="face_x5F_white_1_" cx="27.7427" cy="1572.1094" r="23.4243" fx="23.1732" fy="1569.6195" gradientTransform="matrix(1 0 0 1 0.1602 -1546.3828)" gradientUnits="userSpaceOnUse"&gt;
		&lt;stop  offset="0" style="stop-color:#FFD28F"/&gt;
		&lt;stop  offset="1" style="stop-color:#FFAB4F"/&gt;
	&lt;/radialGradient&gt;
	&lt;path id="face_x5F_white_3_" fill="url(#face_x5F_white_1_)" stroke="#ED9135" stroke-miterlimit="10" d="M43.676,23.357
		c0.086,10.2-6.738,18.52-15.247,18.586c-8.502,0.068-15.466-8.146-15.552-18.344C12.794,13.4,19.618,5.079,28.123,5.012
		C36.627,4.945,43.59,13.158,43.676,23.357z"/&gt;
	
		&lt;linearGradient id="face_highlight_1_" gradientUnits="userSpaceOnUse" x1="3646.5117" y1="-6644.2471" x2="3670.1414" y2="-6737.6978" gradientTransform="matrix(0.275 0 0 -0.2733 -977.2951 -1807.6279)"&gt;
		&lt;stop  offset="0" style="stop-color:#FFFFFF;stop-opacity:0.24"/&gt;
		&lt;stop  offset="1" style="stop-color:#FFFFFF;stop-opacity:0.16"/&gt;
	&lt;/linearGradient&gt;
	&lt;path id="face_highlight_3_" fill="url(#face_highlight_1_)" d="M27.958,6.333c-6.035,0.047-10.747,4.493-12.787,10.386
		c-0.664,1.919-0.294,4.043,0.98,5.629c2.73,3.398,5.729,6.283,9.461,8.088c3.137,1.518,7.535,2.384,11.893,1.247
		c2.274-0.592,3.988-2.459,4.375-4.766c0.183-1.094,0.293-2.289,0.283-3.553C42.083,13.952,36.271,6.268,27.958,6.333z"/&gt;
	&lt;path fill="#656565" stroke="#4B4B4B" stroke-linejoin="round" stroke-miterlimit="10" d="M15.038,26.653
		c0.145,2.05,3.468,2.593,6.477,2.56c2.298-0.026,3.25-0.889,4.746-2.685c2.539-3.05-0.767-3.715-4.817-3.67
		C15.984,22.919,14.777,22.933,15.038,26.653z"/&gt;
	&lt;path fill="#656565" stroke="#4B4B4B" stroke-linejoin="round" stroke-miterlimit="10" d="M41.116,26.653
		c-0.146,2.05-3.47,2.593-6.478,2.56c-2.299-0.026-3.252-0.889-4.746-2.685c-2.538-3.05,0.769-3.715,4.816-3.67
		C40.17,22.919,41.377,22.933,41.116,26.653z"/&gt;
	&lt;path fill="none" stroke="#4B4B4B" stroke-linecap="round" stroke-linejoin="round" stroke-miterlimit="10" d="M27.453,24.375
		c0,0,0.604-0.469,1.305,0"/&gt;
	
		&lt;line fill="none" stroke="#4B4B4B" stroke-linecap="round" stroke-miterlimit="10" x1="41.727" y1="24.592" x2="41.844" y2="25.375"/&gt;
	
		&lt;line fill="none" stroke="#4B4B4B" stroke-linecap="round" stroke-miterlimit="10" x1="42.165" y1="24.938" x2="44.027" y2="24.938"/&gt;
	
		&lt;line fill="none" stroke="#4B4B4B" stroke-linecap="round" stroke-miterlimit="10" x1="14.374" y1="24.592" x2="14.257" y2="25.375"/&gt;
	
		&lt;line fill="none" stroke="#4B4B4B" stroke-linecap="round" stroke-miterlimit="10" x1="13.937" y1="24.938" x2="12.073" y2="24.938"/&gt;
	&lt;path id="body_9_" fill="#9B9B9B" stroke="#4B4B4B" stroke-linecap="round" stroke-linejoin="round" stroke-miterlimit="10" d="
		M0.5,62.768c0,1.938,1.575,3.494,3.523,3.494h48.51c1.947,0,3.521-1.559,3.521-3.494c0,0-1.844-6.861-6.525-11.543
		c-4.815-4.813-11.244-6.146-11.244-6.146c-1.771,1.655-5.61,2.802-10.063,2.802c-4.453,0-8.292-1.146-10.063-2.802
		c0,0-5.755,0.586-11.189,6.021C1.378,56.689,0.5,62.768,0.5,62.768z"/&gt;
	
		&lt;path id="turtleneck_6_" fill="#9B9B9B" stroke="#4B4B4B" stroke-linecap="round" stroke-linejoin="round" stroke-miterlimit="10" d="
		M39.715,44.786l-1.557-3.405c0,0-0.574,2.369-3.012,4.441c-2.109,1.795-6.785,2.072-6.785,2.072s-4.753-0.356-6.722-2.031
		c-2.436-2.072-3.012-4.441-3.012-4.441l-1.555,3.404c0,0-0.552,1.404,1.37,3.479c1.025,1.105,5.203,3.611,9.682,3.582
		c4.479-0.029,9.264-2.594,10.218-3.623C40.266,46.191,39.715,44.786,39.715,44.786z"/&gt;
	&lt;path fill="#656565" stroke="#4B4B4B" stroke-linecap="round" stroke-linejoin="round" stroke-miterlimit="10" d="M49.529,51.225
		c-1.094-1.094-2.319-2.006-3.563-2.766c0.193,0.346,0.401,0.68,0.574,1.041c-4.906,6.014-15.921,9.289-21.743,16.709
		c1.969-7.594-11.166-13.127-14.493-16.926c-0.158-0.182-0.258-0.422-0.332-0.686c-1.015,0.707-2.031,1.525-3.001,2.5
		c-5.592,5.592-6.47,11.67-6.47,11.67c0,1.936,1.575,3.489,3.523,3.489h48.51c1.948,0,3.521-1.558,3.521-3.489
		C56.055,62.768,54.211,55.906,49.529,51.225z"/&gt;
	&lt;path fill="#656565" stroke="#4B4B4B" stroke-linejoin="round" stroke-miterlimit="10" d="M3.007,32.205
		c1.521,2.295,10.771,12.17,10.771,12.17s-5.137,3.012-3.474,4.908c3.327,3.799,10.533,14.018,14.865,16.467
		c2.499-4.6-3.906-23.327-5.724-25.833c-1.296-1.786-3.22-3.269-4.598-5.417C14.846,34.5,9.195,34.5,3.007,32.205z"/&gt;
	&lt;path fill="#656565" stroke="#4B4B4B" stroke-linecap="round" stroke-linejoin="round" stroke-miterlimit="10" d="M52.277,32.205
		c-4.791,3.299-10.368,10.391-11.074,11.066c2.313,1.744,4.9,3.799,6.146,6.406c-4.906,6.014-14.766,9.277-21.747,16.069
		c2.015-7.771,5.157-20.46,12.517-27.083c1.667-1.5,2.713-2.833,4.043-5.391C42.165,33.275,45.637,33.25,52.277,32.205z"/&gt;
	&lt;path id="wh2_1_" fill="#9B9B9B" stroke="#4B4B4B" stroke-linecap="round" stroke-linejoin="round" stroke-miterlimit="10" d="
		M28.276,15.5c5.635,0,10.826,1.416,14.979,3.794c-1.614-8.228-7.794-14.34-15.132-14.282c-7.272,0.057-13.299,6.155-14.846,14.294
		C17.434,16.921,22.632,15.5,28.276,15.5z"/&gt;
	&lt;path id="wh1_1_" fill="#9B9B9B" stroke="#4B4B4B" stroke-linecap="round" stroke-linejoin="round" stroke-miterlimit="10" d="
		M28.278,20.808c5.662,0,11.937,0.811,16.391,2.207c-0.11-2.059-0.274-2.826-0.413-3.72c-4.154-2.379-10.344-3.795-15.98-3.795
		c-5.644,0-11.842,1.421-16,3.807c-0.228,1.197-0.362,2.436-0.388,3.707C16.343,21.618,22.618,20.808,28.278,20.808z"/&gt;
&lt;/g&gt;
&lt;/svg&gt;
</y:Resource>
    </y:Resources>
  </data>
</graphml>
