<?xml version="1.0" encoding="UTF-8" standalone="no"?>
<graphml xmlns="http://graphml.graphdrawing.org/xmlns" xmlns:xsi="http://www.w3.org/2001/XMLSchema-instance" xmlns:y="http://www.yworks.com/xml/graphml" xmlns:yed="http://www.yworks.com/xml/yed/3" xsi:schemaLocation="http://graphml.graphdrawing.org/xmlns http://www.yworks.com/xml/schema/graphml/1.1/ygraphml.xsd">
  <!--Created by yFiles for Java 2.11-->
  <key for="graphml" id="d0" yfiles.type="resources"/>
  <key for="port" id="d1" yfiles.type="portgraphics"/>
  <key for="port" id="d2" yfiles.type="portgeometry"/>
  <key for="port" id="d3" yfiles.type="portuserdata"/>
  <key attr.name="url" attr.type="string" for="node" id="d4"/>
  <key attr.name="description" attr.type="string" for="node" id="d5"/>
  <key for="node" id="d6" yfiles.type="nodegraphics"/>
  <key attr.name="Description" attr.type="string" for="graph" id="d7"/>
  <key attr.name="url" attr.type="string" for="edge" id="d8"/>
  <key attr.name="description" attr.type="string" for="edge" id="d9"/>
  <key for="edge" id="d10" yfiles.type="edgegraphics"/>
  <graph edgedefault="directed" id="G">
    <data key="d7"/>
    <node id="n0">
      <data key="d6">
        <y:ShapeNode>
          <y:Geometry height="270.0" width="386.0" x="-69.5" y="-288.0"/>
          <y:Fill hasColor="false" transparent="false"/>
          <y:BorderStyle color="#000000" type="line" width="1.0"/>
          <y:NodeLabel alignment="center" autoSizePolicy="content" fontFamily="Dialog" fontSize="12" fontStyle="plain" hasBackgroundColor="false" hasLineColor="false" height="17.96875" modelName="sides" modelPosition="n" textColor="#000000" visible="true" width="92.083984375" x="146.9580078125" y="-21.96875">Environment e</y:NodeLabel>
          <y:Shape type="roundrectangle"/>
        </y:ShapeNode>
      </data>
    </node>
    <node id="n1">
      <data key="d6">
        <y:ShapeNode>
          <y:Geometry height="70.0" width="123.0" x="-20.5" y="-242.0"/>
          <y:Fill color="#FFCC00" transparent="false"/>
          <y:BorderStyle color="#000000" type="line" width="1.0"/>
          <y:NodeLabel alignment="center" autoSizePolicy="content" fontFamily="Dialog" fontSize="12" fontStyle="plain" hasBackgroundColor="false" hasLineColor="false" height="17.96875" modelName="internal" modelPosition="c" textColor="#000000" visible="true" width="58.322265625" x="32.3388671875" y="26.015625">Agent a1</y:NodeLabel>
          <y:Shape type="roundrectangle"/>
        </y:ShapeNode>
      </data>
    </node>
    <node id="n2">
      <data key="d6">
        <y:ShapeNode>
          <y:Geometry height="70.0" width="123.0" x="-20.5" y="-134.0"/>
          <y:Fill color="#FFCC00" transparent="false"/>
          <y:BorderStyle color="#000000" type="line" width="1.0"/>
          <y:NodeLabel alignment="center" autoSizePolicy="content" fontFamily="Dialog" fontSize="12" fontStyle="plain" hasBackgroundColor="false" hasLineColor="false" height="17.96875" modelName="internal" modelPosition="c" textColor="#000000" visible="true" width="58.322265625" x="32.3388671875" y="26.015625">Agent a2</y:NodeLabel>
          <y:Shape type="roundrectangle"/>
        </y:ShapeNode>
      </data>
    </node>
    <node id="n3">
      <data key="d6">
        <y:ShapeNode>
          <y:Geometry height="70.0" width="123.0" x="144.5" y="-242.0"/>
          <y:Fill color="#99CC00" transparent="false"/>
          <y:BorderStyle color="#000000" type="line" width="1.0"/>
          <y:NodeLabel alignment="center" autoSizePolicy="content" fontFamily="Dialog" fontSize="12" fontStyle="plain" hasBackgroundColor="false" hasLineColor="false" height="17.96875" modelName="internal" modelPosition="c" textColor="#000000" visible="true" width="71.236328125" x="25.8818359375" y="26.015625">(Object o1)</y:NodeLabel>
          <y:Shape type="roundrectangle"/>
        </y:ShapeNode>
      </data>
    </node>
    <node id="n4">
      <data key="d6">
        <y:ShapeNode>
          <y:Geometry height="70.0" width="123.0" x="144.5" y="-134.0"/>
          <y:Fill color="#99CC00" transparent="false"/>
          <y:BorderStyle color="#000000" type="line" width="1.0"/>
          <y:NodeLabel alignment="center" autoSizePolicy="content" fontFamily="Dialog" fontSize="12" fontStyle="plain" hasBackgroundColor="false" hasLineColor="false" height="17.96875" modelName="internal" modelPosition="c" textColor="#000000" visible="true" width="71.236328125" x="25.8818359375" y="26.015625">(Object o2)</y:NodeLabel>
          <y:Shape type="roundrectangle"/>
        </y:ShapeNode>
      </data>
    </node>
    <node id="n5">
      <data key="d6">
        <y:ShapeNode>
          <y:Geometry height="70.0" width="123.0" x="-222.5" y="-188.0"/>
          <y:Fill color="#FFCC003C" transparent="false"/>
          <y:BorderStyle color="#000000" type="dashed" width="1.0"/>
          <y:NodeLabel alignment="center" autoSizePolicy="content" fontFamily="Dialog" fontSize="12" fontStyle="plain" hasBackgroundColor="false" hasLineColor="false" height="17.96875" modelName="internal" modelPosition="c" textColor="#000000" visible="true" width="58.322265625" x="32.3388671875" y="26.015625">Agent a3</y:NodeLabel>
          <y:Shape type="roundrectangle"/>
        </y:ShapeNode>
      </data>
    </node>
  </graph>
  <data key="d0">
    <y:Resources/>
  </data>
</graphml>
